{
	"data":[

		{"id_cv":190,
			"cv":" Her first book, MWF Seeking BFF, came out last month. Her work has appeared in Marie Claire, More, Teen Vogue, Every Day with Rachael Ray, Fitness, Women's Health, CNN.com, and more. Before leaving New York (and all her friends) for the Midwest, Bertsche was an editor at O: The Oprah Magazine. A writer with an MFA in Creative Writing from The School of the Art Institute of Chicago, Sarah Terez Rosenblum freelances for a number of web sites and print publications. Her debut novel, “Herself When She’s Missing,' (Soft Skull press) is available for pre-order here. She is also a figure model, Spinning instructor and teacher at Chicago’s StoryStudio. Inevitably one day she will find herself lecturing naked on a spinning bike. She's kind of looking forward to it actually.",
			"y":6,
			"y_p":6,
			"prediction": {
				"jobs": [
					{"id_job":0,
					"score":0.020600,
					"score_m":0.000000,
					"score_f":0.000000
					},
					{"id_job":1,
					"score":0.190700,
					"score_m":0.000000,
					"score_f":0.000000
					},
					{"id_job":2,
					"score":0.015800,
					"score_m":0.000000,
					"score_f":0.000000
					},
					{"id_job":3,
					"score":0.070500,
					"score_m":0.000000,
					"score_f":0.000000
					},
					{"id_job":4,
					"score":0.033800,
					"score_m":0.000000,
					"score_f":0.000000
					},
					{"id_job":5,
					"score":0.034000,
					"score_m":0.000000,
					"score_f":0.000000
					},
					{"id_job":6,
					"score":0.236900,
					"score_m":0.000000,
					"score_f":0.000000,
					"bow":[
						{"word":"write","weight":3.603243},
						{"word":"editor","weight":3.588220},
						{"word":"magazin","weight":3.160853},
						{"word":"com","weight":1.891820},
						{"word":"public","weight":1.858397},
						{"word":"press","weight":1.819515},
						{"word":"freelanc","weight":1.423231},
						{"word":"day","weight":1.184313},
						{"word":"writer","weight":0.962246},
						{"word":"new","weight":0.889912},
						{"word":"print","weight":0.875191},
						{"word":"york","weight":0.803558},
						{"word":"book","weight":0.764297},
						{"word":"appear","weight":0.724715},
						{"word":"web","weight":0.698337},
						{"word":"novel","weight":0.568623},
						{"word":"forward","weight":0.551557},
						{"word":"art","weight":-0.452998},
						{"word":"friend","weight":-0.489708},
						{"word":"teacher","weight":-0.597003},
						{"word":"come","weight":-0.603496},
						{"word":"model","weight":-0.872736},
						{"word":"fit","weight":-0.877990}]
					},
					{"id_job":7,
					"score":0.013400,
					"score_m":0.000000,
					"score_f":0.000000
					},
					{"id_job":8,
					"score":0.013300,
					"score_m":0.000000,
					"score_f":0.000000
					},
					{"id_job":9,
					"score":0.010800,
					"score_m":0.000000,
					"score_f":0.000000
					},
					{"id_job":10,
					"score":0.017300,
					"score_m":0.000000,
					"score_f":0.000000
					},
					{"id_job":11,
					"score":0.017100,
					"score_m":0.000000,
					"score_f":0.000000
					},
					{"id_job":12,
					"score":0.029800,
					"score_m":0.000000,
					"score_f":0.000000
					},
					{"id_job":13,
					"score":0.011300,
					"score_m":0.000000,
					"score_f":0.000000
					},
					{"id_job":14,
					"score":0.019900,
					"score_m":0.000000,
					"score_f":0.000000
					},
					{"id_job":15,
					"score":0.062200,
					"score_m":0.000000,
					"score_f":0.000000
					},
					{"id_job":16,
					"score":0.012700,
					"score_m":0.000000,
					"score_f":0.000000
					},
					{"id_job":17,
					"score":0.014900,
					"score_m":0.000000,
					"score_f":0.000000
					},
					{"id_job":18,
					"score":0.017900,
					"score_m":0.000000,
					"score_f":0.000000
					},
					{"id_job":19,
					"score":0.018300,
					"score_m":0.000000,
					"score_f":0.000000
					},
					{"id_job":20,
					"score":0.034300,
					"score_m":0.000000,
					"score_f":0.000000
					},
					{"id_job":21,
					"score":0.013700,
					"score_m":0.000000,
					"score_f":0.000000
					},
					{"id_job":22,
					"score":0.024300,
					"score_m":0.000000,
					"score_f":0.000000
					},
					{"id_job":23,
					"score":0.007800,
					"score_m":0.000000,
					"score_f":0.000000
					},
					{"id_job":24,
					"score":0.013400,
					"score_m":0.000000,
					"score_f":0.000000
					},
					{"id_job":25,
					"score":0.008700,
					"score_m":0.000000,
					"score_f":0.000000
					},
					{"id_job":26,
					"score":0.020500,
					"score_m":0.000000,
					"score_f":0.000000
					},
					{"id_job":27,
					"score":0.016200,
					"score_m":0.000000,
					"score_f":0.000000
					}
				]
			}
		}
	],
	"accuracy":0.000000
}
