
		{"id_cv":1281,
			"cv":" Since his days with Foreign Legion, he’s been a witty, energized and silly emcee. On his newest solo effort, Bangathon, he’s surrounded himself with many solid producers and rappers – most notably Rhymesayer’s Brother Ali and StonesThrow’s Oh No. At this juncture in his developing career, Prozack’s cadence compounded [cont.]",
			"y_p":21,
			"prediction": {
				"jobs": [
					{"id_job":0,
					"score":0.027800
					},
					{"id_job":1,
					"score":0.047300
					},
					{"id_job":2,
					"score":0.014100
					},
					{"id_job":3,
					"score":0.031100
					},
					{"id_job":4,
					"score":0.018500
					},
					{"id_job":5,
					"score":0.024000
					},
					{"id_job":6,
					"score":0.038600
					},
					{"id_job":7,
					"score":0.018800
					},
					{"id_job":8,
					"score":0.020600
					},
					{"id_job":9,
					"score":0.025400
					},
					{"id_job":10,
					"score":0.038600
					},
					{"id_job":11,
					"score":0.019700
					},
					{"id_job":12,
					"score":0.051600
					},
					{"id_job":13,
					"score":0.043900
					},
					{"id_job":14,
					"score":0.019000
					},
					{"id_job":15,
					"score":0.023400
					},
					{"id_job":16,
					"score":0.015800
					},
					{"id_job":17,
					"score":0.014600
					},
					{"id_job":18,
					"score":0.032300
					},
					{"id_job":19,
					"score":0.018100
					},
					{"id_job":20,
					"score":0.026600
					},
					{"id_job":21,
					"score":0.297900,
					"bow":[
						{"word":"rapper","weight":5.848053}]
					},
					{"id_job":22,
					"score":0.019200
					},
					{"id_job":23,
					"score":0.018800
					},
					{"id_job":24,
					"score":0.035100
					},
					{"id_job":25,
					"score":0.025300
					},
					{"id_job":26,
					"score":0.021800
					},
					{"id_job":27,
					"score":0.012000
					}
				]
			}
		}