
		{"id_cv":132,
			"cv":" Prior to her current position, she served as coordinator for Gwyneed-Mercy College's Clinical Nursing Facility, Clinical Editor for Lippincott, Williams and Wilkins and Renal Clinical Nurse Specialist at Thomas Jefferson University Hospital.",
			"y":19,
			"y_p":14,
			"prediction": {
				"jobs": [
					{"id_job":0,
					"score":0.007100
					},
					{"id_job":1,
					"score":0.005200
					},
					{"id_job":2,
					"score":0.002300
					},
					{"id_job":3,
					"score":0.003800
					},
					{"id_job":4,
					"score":0.003100
					},
					{"id_job":5,
					"score":0.003300
					},
					{"id_job":6,
					"score":0.007300
					},
					{"id_job":7,
					"score":0.002800
					},
					{"id_job":8,
					"score":0.019400
					},
					{"id_job":9,
					"score":0.005800
					},
					{"id_job":10,
					"score":0.002900
					},
					{"id_job":11,
					"score":0.030100
					},
					{"id_job":12,
					"score":0.004000
					},
					{"id_job":13,
					"score":0.004200
					},
					{"id_job":14,
					"score":0.807300,
					"bow":[
						{"word":"nurs","weight":11.543948},
						{"word":"clinic","weight":2.683529},
						{"word":"hospit","weight":2.451991},
						{"word":"specialist","weight":0.825055},
						{"word":"coordin","weight":0.631130}]
					},
					{"id_job":15,
					"score":0.005100
					},
					{"id_job":16,
					"score":0.006000
					},
					{"id_job":17,
					"score":0.005700
					},
					{"id_job":18,
					"score":0.003900
					},
					{"id_job":19,
					"score":0.024100
					},
					{"id_job":20,
					"score":0.002400
					},
					{"id_job":21,
					"score":0.003400
					},
					{"id_job":22,
					"score":0.013800
					},
					{"id_job":23,
					"score":0.003700
					},
					{"id_job":24,
					"score":0.004600
					},
					{"id_job":25,
					"score":0.003300
					},
					{"id_job":26,
					"score":0.007000
					},
					{"id_job":27,
					"score":0.008800
					}
				]
			}
		}