
		{"id_cv":101024,
			"cv":" She is a national speaker and writes frequently on the topic of workers' compensation. Her book Workers Compensation Management Program: Reduce Costs 20% to 50% provides practical solutions and cost containment techniques for employers with high workers compensation costs and her web-based resource center provides information on cost reduction. She was in-house counsel for a Fortune 500 Corporation and developed the workers’ compensation consulting practices for Marsh and Aon.",
			"y":26,
			"y_p":22,
			"prediction": {
				"jobs": [
					{"id_job":0,
					"score":0.028700
					},
					{"id_job":1,
					"score":0.029400
					},
					{"id_job":2,
					"score":0.016700
					},
					{"id_job":3,
					"score":0.037700
					},
					{"id_job":4,
					"score":0.011400
					},
					{"id_job":5,
					"score":0.011600
					},
					{"id_job":6,
					"score":0.029700
					},
					{"id_job":7,
					"score":0.017700
					},
					{"id_job":8,
					"score":0.024100
					},
					{"id_job":9,
					"score":0.045700
					},
					{"id_job":10,
					"score":0.018400
					},
					{"id_job":11,
					"score":0.031800
					},
					{"id_job":12,
					"score":0.019100
					},
					{"id_job":13,
					"score":0.041900
					},
					{"id_job":14,
					"score":0.080700
					},
					{"id_job":15,
					"score":0.019700
					},
					{"id_job":16,
					"score":0.031100
					},
					{"id_job":17,
					"score":0.035000
					},
					{"id_job":18,
					"score":0.018400
					},
					{"id_job":19,
					"score":0.037300
					},
					{"id_job":20,
					"score":0.016500
					},
					{"id_job":21,
					"score":0.013500
					},
					{"id_job":22,
					"score":0.113200,
					"bow":[
						{"word":"counsel","weight":2.520438},
						{"word":"book","weight":2.357522},
						{"word":"consult","weight":2.150483},
						{"word":"practic","weight":1.525479},
						{"word":"develop","weight":1.411411},
						{"word":"inform","weight":1.392079},
						{"word":"center","weight":1.202993}]
					},
					{"id_job":23,
					"score":0.055200
					},
					{"id_job":24,
					"score":0.072400
					},
					{"id_job":25,
					"score":0.014600
					},
					{"id_job":26,
					"score":0.093100
					},
					{"id_job":27,
					"score":0.035400
					}
				]
			}
		}