
		{"id_cv":101082,
			"cv":" Dr. Reddy graduated from Rush Medical College. She has a 2.5 out of 5 star average patient rating. She is an in-network provider for Humana HMO, Humana Bronze, Humana Catastrophic, and more.",
			"y":11,
			"y_p":17,
			"prediction": {
				"jobs": [
					{"id_job":0,
					"score":0.017100
					},
					{"id_job":1,
					"score":0.025800
					},
					{"id_job":2,
					"score":0.008000
					},
					{"id_job":3,
					"score":0.013200
					},
					{"id_job":4,
					"score":0.010900
					},
					{"id_job":5,
					"score":0.012000
					},
					{"id_job":6,
					"score":0.016300
					},
					{"id_job":7,
					"score":0.010300
					},
					{"id_job":8,
					"score":0.078000
					},
					{"id_job":9,
					"score":0.014700
					},
					{"id_job":10,
					"score":0.012700
					},
					{"id_job":11,
					"score":0.065200
					},
					{"id_job":12,
					"score":0.023600
					},
					{"id_job":13,
					"score":0.014100
					},
					{"id_job":14,
					"score":0.035500
					},
					{"id_job":15,
					"score":0.012800
					},
					{"id_job":16,
					"score":0.062100
					},
					{"id_job":17,
					"score":0.418300,
					"bow":[
						{"word":"dr","weight":4.815372},
						{"word":"patient","weight":3.841477},
						{"word":"humana","weight":1.794633},
						{"word":"rat","weight":1.209701},
						{"word":"hmo","weight":1.139867},
						{"word":"averag","weight":0.920004},
						{"word":"provid","weight":0.909176},
						{"word":"network","weight":0.755933},
						{"word":"star","weight":0.604101}]
					},
					{"id_job":18,
					"score":0.011500
					},
					{"id_job":19,
					"score":0.018000
					},
					{"id_job":20,
					"score":0.011800
					},
					{"id_job":21,
					"score":0.014300
					},
					{"id_job":22,
					"score":0.023900
					},
					{"id_job":23,
					"score":0.015000
					},
					{"id_job":24,
					"score":0.013100
					},
					{"id_job":25,
					"score":0.012700
					},
					{"id_job":26,
					"score":0.015200
					},
					{"id_job":27,
					"score":0.014000
					}
				]
			}
		}