
		{"id_cv":101010,
			"cv":" She teaches critical care nursing to undergraduates and quality improvement and outcomes research to graduate students. Prof. Cuddigan is a member of the Board of Directors of the National Pressure Ulcer Advisory Panel. She has been involved in the development of evidence-based guidelines for pressure ulcers since the AHCPR Pressure Ulcer Guidelines published in 1992. Prof. Cuddigan was a Co-Chair of the NPUAP-EPUAP Guideline Development Group and the Editor-in-Chief of the 2009 International Pressure Ulcer Guideline. She served as a member of the NPUAP-EPUAP-PPPIA Guideline Development Group for the 2014 International Pressure Ulcer Guideline. Prof. Cuddigan received the NPUAP Kosiak Award for Leadership in Pressure Ulcer Research, Practice, Education and Public Policy in 2011, and the 2015 NPUAP President’s Recognition Award.",
			"y":19,
			"y_p":19,
			"prediction": {
				"jobs": [
					{"id_job":0,
					"score":0.037800
					},
					{"id_job":1,
					"score":0.028500
					},
					{"id_job":2,
					"score":0.015700
					},
					{"id_job":3,
					"score":0.063200
					},
					{"id_job":4,
					"score":0.012400
					},
					{"id_job":5,
					"score":0.015700
					},
					{"id_job":6,
					"score":0.040800
					},
					{"id_job":7,
					"score":0.014900
					},
					{"id_job":8,
					"score":0.034900
					},
					{"id_job":9,
					"score":0.041900
					},
					{"id_job":10,
					"score":0.015900
					},
					{"id_job":11,
					"score":0.071800
					},
					{"id_job":12,
					"score":0.021300
					},
					{"id_job":13,
					"score":0.036600
					},
					{"id_job":14,
					"score":0.083900
					},
					{"id_job":15,
					"score":0.023400
					},
					{"id_job":16,
					"score":0.018300
					},
					{"id_job":17,
					"score":0.021300
					},
					{"id_job":18,
					"score":0.023600
					},
					{"id_job":19,
					"score":0.120700,
					"bow":[
						{"word":"research","weight":6.855651},
						{"word":"teach","weight":2.863140},
						{"word":"educ","weight":2.297390},
						{"word":"receiv","weight":1.900002},
						{"word":"polici","weight":1.832345},
						{"word":"publish","weight":1.358330},
						{"word":"develop","weight":1.148386},
						{"word":"editor","weight":1.054379},
						{"word":"award","weight":0.978251},
						{"word":"nation","weight":0.865105}]
					},
					{"id_job":20,
					"score":0.019800
					},
					{"id_job":21,
					"score":0.024600
					},
					{"id_job":22,
					"score":0.040100
					},
					{"id_job":23,
					"score":0.019200
					},
					{"id_job":24,
					"score":0.050300
					},
					{"id_job":25,
					"score":0.020800
					},
					{"id_job":26,
					"score":0.047000
					},
					{"id_job":27,
					"score":0.035500
					}
				]
			}
		}