
		{"id_cv":195,
			"cv":" He is also a professor and provisional head of the psychology department of the School of Social Sciences of the State University of Haiti. He talks about how local organizations and institutions are using social psychology in Haiti’s post-earthquake context to help survivors heal. ...",
			"y":22,
			"y_p":22,
			"prediction": {
				"jobs": [
					{"id_job":0,
					"score":0.013300
					},
					{"id_job":1,
					"score":0.006800
					},
					{"id_job":2,
					"score":0.006100
					},
					{"id_job":3,
					"score":0.031700
					},
					{"id_job":4,
					"score":0.009000
					},
					{"id_job":5,
					"score":0.005500
					},
					{"id_job":6,
					"score":0.012700
					},
					{"id_job":7,
					"score":0.003400
					},
					{"id_job":8,
					"score":0.009000
					},
					{"id_job":9,
					"score":0.006300
					},
					{"id_job":10,
					"score":0.005600
					},
					{"id_job":11,
					"score":0.014900
					},
					{"id_job":12,
					"score":0.007700
					},
					{"id_job":13,
					"score":0.012500
					},
					{"id_job":14,
					"score":0.015500
					},
					{"id_job":15,
					"score":0.005200
					},
					{"id_job":16,
					"score":0.006900
					},
					{"id_job":17,
					"score":0.006200
					},
					{"id_job":18,
					"score":0.007500
					},
					{"id_job":19,
					"score":0.054000
					},
					{"id_job":20,
					"score":0.005400
					},
					{"id_job":21,
					"score":0.007000
					},
					{"id_job":22,
					"score":0.706000,
					"bow":[
						{"word":"psycholog","weight":8.571754},
						{"word":"institut","weight":1.410031},
						{"word":"professor","weight":1.406606},
						{"word":"talk","weight":1.304118},
						{"word":"help","weight":1.096071},
						{"word":"univers","weight":1.003287},
						{"word":"social","weight":0.929648}]
					},
					{"id_job":23,
					"score":0.011200
					},
					{"id_job":24,
					"score":0.010000
					},
					{"id_job":25,
					"score":0.004200
					},
					{"id_job":26,
					"score":0.010100
					},
					{"id_job":27,
					"score":0.006400
					}
				]
			}
		}