
		{"id_cv":1250,
			"cv":" W. Post Campus of Long Island University. He has published numerous articles and books, including “Staging Modern American Life: Popular Culture in the Experimental Theatre of Millay, Cummings, and Dos Passos,” “Freak Shows and the Modern American Imagination,” a monograph on Gabriel García Márquez, three novels and several edited collections. http://www.thomasfahy.com Specialties",
			"y_p":19,
			"prediction": {
				"jobs": [
					{"id_job":0,
					"score":0.036500
					},
					{"id_job":1,
					"score":0.021100
					},
					{"id_job":2,
					"score":0.010900
					},
					{"id_job":3,
					"score":0.047800
					},
					{"id_job":4,
					"score":0.018000
					},
					{"id_job":5,
					"score":0.037600
					},
					{"id_job":6,
					"score":0.050400
					},
					{"id_job":7,
					"score":0.027600
					},
					{"id_job":8,
					"score":0.020200
					},
					{"id_job":9,
					"score":0.011800
					},
					{"id_job":10,
					"score":0.017700
					},
					{"id_job":11,
					"score":0.033000
					},
					{"id_job":12,
					"score":0.032200
					},
					{"id_job":13,
					"score":0.021300
					},
					{"id_job":14,
					"score":0.018300
					},
					{"id_job":15,
					"score":0.064100
					},
					{"id_job":16,
					"score":0.025900
					},
					{"id_job":17,
					"score":0.011900
					},
					{"id_job":18,
					"score":0.022800
					},
					{"id_job":19,
					"score":0.248500,
					"bow":[
						{"word":"univers","weight":3.944963},
						{"word":"american","weight":2.712518}]
					},
					{"id_job":20,
					"score":0.048600
					},
					{"id_job":21,
					"score":0.016000
					},
					{"id_job":22,
					"score":0.038500
					},
					{"id_job":23,
					"score":0.009200
					},
					{"id_job":24,
					"score":0.029100
					},
					{"id_job":25,
					"score":0.022800
					},
					{"id_job":26,
					"score":0.042500
					},
					{"id_job":27,
					"score":0.016100
					}
				]
			}
		}