
		{"id_cv":19,
			"cv":" He is the host of The Skeptics’ Guide to the Universe, a weekly science podcast (www.theskepticsguide.org), author of the NeuroLogica blog (www.theness.com/ NeuroLogicaBlog), and president of the New England Skeptical Society www.theness.com).",
			"y_p":6,
			"prediction": {
				"jobs": [
					{"id_job":0,
					"score":0.064700
					},
					{"id_job":1,
					"score":0.018200
					},
					{"id_job":2,
					"score":0.016700
					},
					{"id_job":3,
					"score":0.043900
					},
					{"id_job":4,
					"score":0.034200
					},
					{"id_job":5,
					"score":0.018600
					},
					{"id_job":6,
					"score":0.132700,
					"bow":[
						{"word":"blog","weight":1.999318},
						{"word":"com","weight":1.891820},
						{"word":"week","weight":1.276217},
						{"word":"new","weight":0.889912},
						{"word":"org","weight":0.787477},
						{"word":"author","weight":0.754192},
						{"word":"scienc","weight":0.561067},
						{"word":"skeptic","weight":0.343816},
						{"word":"presid","weight":0.214732},
						{"word":"host","weight":0.205571},
						{"word":"guid","weight":0.163397},
						{"word":"england","weight":0.159382},
						{"word":"www","weight":0.048677}]
					},
					{"id_job":7,
					"score":0.020100
					},
					{"id_job":8,
					"score":0.023700
					},
					{"id_job":9,
					"score":0.024800
					},
					{"id_job":10,
					"score":0.020700
					},
					{"id_job":11,
					"score":0.055000
					},
					{"id_job":12,
					"score":0.048700
					},
					{"id_job":13,
					"score":0.066600
					},
					{"id_job":14,
					"score":0.023500
					},
					{"id_job":15,
					"score":0.020200
					},
					{"id_job":16,
					"score":0.021700
					},
					{"id_job":17,
					"score":0.016100
					},
					{"id_job":18,
					"score":0.018500
					},
					{"id_job":19,
					"score":0.066400
					},
					{"id_job":20,
					"score":0.030800
					},
					{"id_job":21,
					"score":0.015300
					},
					{"id_job":22,
					"score":0.053700
					},
					{"id_job":23,
					"score":0.012200
					},
					{"id_job":24,
					"score":0.035600
					},
					{"id_job":25,
					"score":0.018300
					},
					{"id_job":26,
					"score":0.052400
					},
					{"id_job":27,
					"score":0.026900
					}
				]
			}
		}