
		{"id_cv":136,
			"cv":" She specializes in relationships, life transitions, trauma, depression and anxiety, and is certified to practice EMDR for trauma resolution. She is a contributing therapy expert for BounceBack.com.",
			"y":22,
			"y_p":22,
			"prediction": {
				"jobs": [
					{"id_job":0,
					"score":0.011200
					},
					{"id_job":1,
					"score":0.010400
					},
					{"id_job":2,
					"score":0.020000
					},
					{"id_job":3,
					"score":0.009500
					},
					{"id_job":4,
					"score":0.013900
					},
					{"id_job":5,
					"score":0.007900
					},
					{"id_job":6,
					"score":0.013400
					},
					{"id_job":7,
					"score":0.008300
					},
					{"id_job":8,
					"score":0.014800
					},
					{"id_job":9,
					"score":0.010900
					},
					{"id_job":10,
					"score":0.007300
					},
					{"id_job":11,
					"score":0.023600
					},
					{"id_job":12,
					"score":0.011400
					},
					{"id_job":13,
					"score":0.009500
					},
					{"id_job":14,
					"score":0.025600
					},
					{"id_job":15,
					"score":0.006200
					},
					{"id_job":16,
					"score":0.011500
					},
					{"id_job":17,
					"score":0.018900
					},
					{"id_job":18,
					"score":0.007600
					},
					{"id_job":19,
					"score":0.009200
					},
					{"id_job":20,
					"score":0.010900
					},
					{"id_job":21,
					"score":0.009200
					},
					{"id_job":22,
					"score":0.686500,
					"bow":[
						{"word":"anxieti","weight":2.233858},
						{"word":"therapi","weight":2.192499},
						{"word":"depress","weight":2.060796},
						{"word":"trauma","weight":2.028936},
						{"word":"relationship","weight":1.984889},
						{"word":"practic","weight":1.525479},
						{"word":"special","weight":1.253390},
						{"word":"emdr","weight":1.024839},
						{"word":"com","weight":0.904316}]
					},
					{"id_job":23,
					"score":0.007500
					},
					{"id_job":24,
					"score":0.008500
					},
					{"id_job":25,
					"score":0.006800
					},
					{"id_job":26,
					"score":0.011700
					},
					{"id_job":27,
					"score":0.007700
					}
				]
			}
		}