
		{"id_cv":1271,
			"cv":" In addition, Dean teaches choral music methods, studio voice and supervises student teachers. Prior to his work at WSU, Dean worked as a Visiting Instructor at the University of South Florida in Tampa and as a public school teacher in the Green Bay public school system in Wisconsin.",
			"y_p":3,
			"prediction": {
				"jobs": [
					{"id_job":0,
					"score":0.011800
					},
					{"id_job":1,
					"score":0.008900
					},
					{"id_job":2,
					"score":0.030000
					},
					{"id_job":3,
					"score":0.595100,
					"bow":[
						{"word":"teach","weight":6.447245},
						{"word":"student","weight":5.761793},
						{"word":"teacher","weight":5.578686},
						{"word":"school","weight":3.832566}]
					},
					{"id_job":4,
					"score":0.007400
					},
					{"id_job":5,
					"score":0.024700
					},
					{"id_job":6,
					"score":0.023900
					},
					{"id_job":7,
					"score":0.005700
					},
					{"id_job":8,
					"score":0.006700
					},
					{"id_job":9,
					"score":0.013300
					},
					{"id_job":10,
					"score":0.008500
					},
					{"id_job":11,
					"score":0.011700
					},
					{"id_job":12,
					"score":0.006300
					},
					{"id_job":13,
					"score":0.008200
					},
					{"id_job":14,
					"score":0.011700
					},
					{"id_job":15,
					"score":0.014300
					},
					{"id_job":16,
					"score":0.007400
					},
					{"id_job":17,
					"score":0.006100
					},
					{"id_job":18,
					"score":0.006300
					},
					{"id_job":19,
					"score":0.043600
					},
					{"id_job":20,
					"score":0.017700
					},
					{"id_job":21,
					"score":0.012500
					},
					{"id_job":22,
					"score":0.017200
					},
					{"id_job":23,
					"score":0.011200
					},
					{"id_job":24,
					"score":0.013200
					},
					{"id_job":25,
					"score":0.045500
					},
					{"id_job":26,
					"score":0.021300
					},
					{"id_job":27,
					"score":0.010000
					}
				]
			}
		}