
		{"id_cv":1243,
			"cv":" The company is known for such projects as the Grand Louvre in Paris, the Rock and Roll hall of Fame and Museum in Cleveland, the Paloaao Lombardia in Milan and the U.S. Holocaust Memorial Museum in Washington, D.C. to name a few. Miller is also a former president of American Institute of Architects, a member of the Architectural League of New York, Municipal Arts Society, Society of Architectural Historians and is director of the New York Building Congress.",
			"y_p":24,
			"prediction": {
				"jobs": [
					{"id_job":0,
					"score":0.004900
					},
					{"id_job":1,
					"score":0.009500
					},
					{"id_job":2,
					"score":0.003100
					},
					{"id_job":3,
					"score":0.008700
					},
					{"id_job":4,
					"score":0.003100
					},
					{"id_job":5,
					"score":0.031700
					},
					{"id_job":6,
					"score":0.011000
					},
					{"id_job":7,
					"score":0.018000
					},
					{"id_job":8,
					"score":0.007800
					},
					{"id_job":9,
					"score":0.012400
					},
					{"id_job":10,
					"score":0.010400
					},
					{"id_job":11,
					"score":0.009700
					},
					{"id_job":12,
					"score":0.011100
					},
					{"id_job":13,
					"score":0.010400
					},
					{"id_job":14,
					"score":0.005400
					},
					{"id_job":15,
					"score":0.007600
					},
					{"id_job":16,
					"score":0.005600
					},
					{"id_job":17,
					"score":0.002700
					},
					{"id_job":18,
					"score":0.018100
					},
					{"id_job":19,
					"score":0.017700
					},
					{"id_job":20,
					"score":0.038100
					},
					{"id_job":21,
					"score":0.009500
					},
					{"id_job":22,
					"score":0.006900
					},
					{"id_job":23,
					"score":0.004300
					},
					{"id_job":24,
					"score":0.704900,
					"bow":[
						{"word":"architectur","weight":8.925463},
						{"word":"architect","weight":5.461712},
						{"word":"project","weight":3.087663},
						{"word":"build","weight":2.731204}]
					},
					{"id_job":25,
					"score":0.014500
					},
					{"id_job":26,
					"score":0.009000
					},
					{"id_job":27,
					"score":0.003700
					}
				]
			}
		}