
		{"id_cv":101022,
			"cv":" He holds a doctorate from Jawaharlal Nehru University, India, and has taught at the School of Oriental and African Studies (SOAS), University of London, and Ambedkar University Delhi. He was also previously a postdoctoral fellow at the Johannesburg Institute for Advanced Study, University of Johannesburg.",
			"y":19,
			"y_p":19,
			"prediction": {
				"jobs": [
					{"id_job":0,
					"score":0.025700
					},
					{"id_job":1,
					"score":0.015200
					},
					{"id_job":2,
					"score":0.023400
					},
					{"id_job":3,
					"score":0.067700
					},
					{"id_job":4,
					"score":0.011800
					},
					{"id_job":5,
					"score":0.017200
					},
					{"id_job":6,
					"score":0.038800
					},
					{"id_job":7,
					"score":0.006700
					},
					{"id_job":8,
					"score":0.022600
					},
					{"id_job":9,
					"score":0.020000
					},
					{"id_job":10,
					"score":0.008400
					},
					{"id_job":11,
					"score":0.053800
					},
					{"id_job":12,
					"score":0.009600
					},
					{"id_job":13,
					"score":0.031700
					},
					{"id_job":14,
					"score":0.012900
					},
					{"id_job":15,
					"score":0.028500
					},
					{"id_job":16,
					"score":0.014100
					},
					{"id_job":17,
					"score":0.007100
					},
					{"id_job":18,
					"score":0.012500
					},
					{"id_job":19,
					"score":0.412100,
					"bow":[
						{"word":"univers","weight":3.944963},
						{"word":"teach","weight":2.863140},
						{"word":"studi","weight":2.168236},
						{"word":"african","weight":1.478810},
						{"word":"postdoctor","weight":1.320342},
						{"word":"doctor","weight":1.046718}]
					},
					{"id_job":20,
					"score":0.010200
					},
					{"id_job":21,
					"score":0.007000
					},
					{"id_job":22,
					"score":0.039500
					},
					{"id_job":23,
					"score":0.017400
					},
					{"id_job":24,
					"score":0.036200
					},
					{"id_job":25,
					"score":0.018600
					},
					{"id_job":26,
					"score":0.017400
					},
					{"id_job":27,
					"score":0.013900
					}
				]
			}
		}