
		{"id_cv":12003,
			"cv":" Exposed to all different mediums of art at a young age, the passion to create followed throughout the years. With formal education and training in the areas of graphic design, fine arts, and landscape architecture, Andrew's creative vision is a result of multiple influences. Most prevalent of all the influences is nature, and a love for the outdoors. This has translated into a passion for photography and the desire to capture beautiful moments and places through the lens. His work has landed spots in popular art shows, and won a coveted award in 2012.",
			"y_p":20,
			"prediction": {
				"jobs": [
					{"id_job":0,
					"score":0.006900
					},
					{"id_job":1,
					"score":0.010100
					},
					{"id_job":2,
					"score":0.009000
					},
					{"id_job":3,
					"score":0.013500
					},
					{"id_job":4,
					"score":0.014600
					},
					{"id_job":5,
					"score":0.172100
					},
					{"id_job":6,
					"score":0.004200
					},
					{"id_job":7,
					"score":0.116700
					},
					{"id_job":8,
					"score":0.004500
					},
					{"id_job":9,
					"score":0.003400
					},
					{"id_job":10,
					"score":0.009400
					},
					{"id_job":11,
					"score":0.003200
					},
					{"id_job":12,
					"score":0.004100
					},
					{"id_job":13,
					"score":0.005000
					},
					{"id_job":14,
					"score":0.005800
					},
					{"id_job":15,
					"score":0.013700
					},
					{"id_job":16,
					"score":0.004200
					},
					{"id_job":17,
					"score":0.004700
					},
					{"id_job":18,
					"score":0.026300
					},
					{"id_job":19,
					"score":0.008200
					},
					{"id_job":20,
					"score":0.501100,
					"bow":[
						{"word":"photographi","weight":9.549496},
						{"word":"work","weight":3.083175}]
					},
					{"id_job":21,
					"score":0.007000
					},
					{"id_job":22,
					"score":0.006200
					},
					{"id_job":23,
					"score":0.004300
					},
					{"id_job":24,
					"score":0.026900
					},
					{"id_job":25,
					"score":0.010100
					},
					{"id_job":26,
					"score":0.002300
					},
					{"id_job":27,
					"score":0.002600
					}
				]
			}
		}