
		{"id_cv":12077,
			"cv":" He serves as Director of The Chester M. Pierce, MD Division of Global Psychiatry at MGH, Director of the MGH Schizophrenia, Weigh Reduction and Glucose Metabolism Research Program, Associate Director of the MGH Schizophrenia Program and Medical Director of the Harvard Program in Refugee Trauma.",
			"y_p":11,
			"prediction": {
				"jobs": [
					{"id_job":0,
					"score":0.032700
					},
					{"id_job":1,
					"score":0.024800
					},
					{"id_job":2,
					"score":0.015000
					},
					{"id_job":3,
					"score":0.037000
					},
					{"id_job":4,
					"score":0.013800
					},
					{"id_job":5,
					"score":0.013200
					},
					{"id_job":6,
					"score":0.027900
					},
					{"id_job":7,
					"score":0.015000
					},
					{"id_job":8,
					"score":0.072200
					},
					{"id_job":9,
					"score":0.048700
					},
					{"id_job":10,
					"score":0.019500
					},
					{"id_job":11,
					"score":0.164400,
					"bow":[
						{"word":"medic","weight":5.774218}]
					},
					{"id_job":12,
					"score":0.017800
					},
					{"id_job":13,
					"score":0.032800
					},
					{"id_job":14,
					"score":0.055500
					},
					{"id_job":15,
					"score":0.017700
					},
					{"id_job":16,
					"score":0.017500
					},
					{"id_job":17,
					"score":0.010800
					},
					{"id_job":18,
					"score":0.040600
					},
					{"id_job":19,
					"score":0.091200
					},
					{"id_job":20,
					"score":0.018100
					},
					{"id_job":21,
					"score":0.020200
					},
					{"id_job":22,
					"score":0.073400
					},
					{"id_job":23,
					"score":0.014800
					},
					{"id_job":24,
					"score":0.030200
					},
					{"id_job":25,
					"score":0.020400
					},
					{"id_job":26,
					"score":0.030700
					},
					{"id_job":27,
					"score":0.024000
					}
				]
			}
		}