
		{"id_cv":101045,
			"cv":" Her work explores the metaphysical relationship between the natural world and the spiritual realm. She was born in Philadelphia, and grew up in rural areas of Connecticut and New Jersey. The lakes, fields, and woodlands of her childhood provided her with a deeply emotional connection to nature from a very early age. McGregor studied Studio Art and Art History at the University of Arizona, graduating with a BFA with Honors in 1985. She has been exhibiting her work for more than three decades, and her art can be found in public and private collections throughout the United States and Europe.",
			"y":5,
			"y_p":5,
			"prediction": {
				"jobs": [
					{"id_job":0,
					"score":0.005300
					},
					{"id_job":1,
					"score":0.004300
					},
					{"id_job":2,
					"score":0.005200
					},
					{"id_job":3,
					"score":0.011800
					},
					{"id_job":4,
					"score":0.004200
					},
					{"id_job":5,
					"score":0.794100,
					"bow":[
						{"word":"art","weight":5.812430},
						{"word":"exhibit","weight":4.966443},
						{"word":"work","weight":4.077012},
						{"word":"studio","weight":2.268163},
						{"word":"collect","weight":1.745130},
						{"word":"bfa","weight":1.478159},
						{"word":"bear","weight":1.133522},
						{"word":"explor","weight":0.916689},
						{"word":"new","weight":0.790403},
						{"word":"emot","weight":0.774486},
						{"word":"studi","weight":0.761318},
						{"word":"spiritu","weight":0.751315},
						{"word":"grow","weight":0.735349},
						{"word":"natur","weight":0.702542},
						{"word":"childhood","weight":0.669913}]
					},
					{"id_job":6,
					"score":0.006500
					},
					{"id_job":7,
					"score":0.009900
					},
					{"id_job":8,
					"score":0.002600
					},
					{"id_job":9,
					"score":0.003700
					},
					{"id_job":10,
					"score":0.003700
					},
					{"id_job":11,
					"score":0.003700
					},
					{"id_job":12,
					"score":0.002300
					},
					{"id_job":13,
					"score":0.002400
					},
					{"id_job":14,
					"score":0.005000
					},
					{"id_job":15,
					"score":0.008900
					},
					{"id_job":16,
					"score":0.002900
					},
					{"id_job":17,
					"score":0.003700
					},
					{"id_job":18,
					"score":0.010000
					},
					{"id_job":19,
					"score":0.014900
					},
					{"id_job":20,
					"score":0.048700
					},
					{"id_job":21,
					"score":0.002500
					},
					{"id_job":22,
					"score":0.013400
					},
					{"id_job":23,
					"score":0.008400
					},
					{"id_job":24,
					"score":0.005000
					},
					{"id_job":25,
					"score":0.008400
					},
					{"id_job":26,
					"score":0.005500
					},
					{"id_job":27,
					"score":0.002900
					}
				]
			}
		}