
		{"id_cv":101051,
			"cv":" He serves also as the Director of New York Institute of Technology - Center for Security and Disaster Responses. He is a graduate of Virginia Tech with degrees in History and Political Science. He holds a Juris Doctor degree from New York Law School. He also graduated from Oxford University with a Master of Science degree in Criminology and Criminal Justice. In addition, he is a graduate of New York University’s professional program in Homeland Security. He has received his certification/license as a Security Guard Instructor from the New York State Division of Criminal Justice Services.",
			"y":19,
			"y_p":19,
			"prediction": {
				"jobs": [
					{"id_job":0,
					"score":0.012800
					},
					{"id_job":1,
					"score":0.004500
					},
					{"id_job":2,
					"score":0.005200
					},
					{"id_job":3,
					"score":0.015200
					},
					{"id_job":4,
					"score":0.009400
					},
					{"id_job":5,
					"score":0.008800
					},
					{"id_job":6,
					"score":0.039900
					},
					{"id_job":7,
					"score":0.004200
					},
					{"id_job":8,
					"score":0.009700
					},
					{"id_job":9,
					"score":0.025000
					},
					{"id_job":10,
					"score":0.003900
					},
					{"id_job":11,
					"score":0.022300
					},
					{"id_job":12,
					"score":0.005700
					},
					{"id_job":13,
					"score":0.038600
					},
					{"id_job":14,
					"score":0.009700
					},
					{"id_job":15,
					"score":0.005900
					},
					{"id_job":16,
					"score":0.008700
					},
					{"id_job":17,
					"score":0.004800
					},
					{"id_job":18,
					"score":0.012100
					},
					{"id_job":19,
					"score":0.346000,
					"bow":[
						{"word":"univers","weight":3.944963},
						{"word":"law","weight":2.400106},
						{"word":"polit","weight":2.330723},
						{"word":"histori","weight":2.182198},
						{"word":"receiv","weight":1.900002},
						{"word":"program","weight":1.412316},
						{"word":"crimin","weight":1.189482},
						{"word":"secur","weight":1.157353},
						{"word":"scienc","weight":1.076518},
						{"word":"doctor","weight":1.046718},
						{"word":"center","weight":1.003731},
						{"word":"technolog","weight":0.967942},
						{"word":"justic","weight":0.951446}]
					},
					{"id_job":20,
					"score":0.011500
					},
					{"id_job":21,
					"score":0.004000
					},
					{"id_job":22,
					"score":0.023700
					},
					{"id_job":23,
					"score":0.110400
					},
					{"id_job":24,
					"score":0.021700
					},
					{"id_job":25,
					"score":0.007400
					},
					{"id_job":26,
					"score":0.213300
					},
					{"id_job":27,
					"score":0.015800
					}
				]
			}
		}