
		{"id_cv":147,
			"cv":" He is the author of several journal articles and book chapters, and contributes weekly to World Politics Review, where he writes the column “Over the Horizon.”",
			"y":19,
			"y_p":6,
			"prediction": {
				"jobs": [
					{"id_job":0,
					"score":0.028700
					},
					{"id_job":1,
					"score":0.004300
					},
					{"id_job":2,
					"score":0.003000
					},
					{"id_job":3,
					"score":0.033000
					},
					{"id_job":4,
					"score":0.004300
					},
					{"id_job":5,
					"score":0.002900
					},
					{"id_job":6,
					"score":0.541800,
					"bow":[
						{"word":"journal","weight":4.353891},
						{"word":"write","weight":3.603243},
						{"word":"contribut","weight":1.730983},
						{"word":"polit","weight":1.395174},
						{"word":"articl","weight":1.297071},
						{"word":"week","weight":1.276217},
						{"word":"book","weight":0.764297},
						{"word":"column","weight":0.763813}]
					},
					{"id_job":7,
					"score":0.003900
					},
					{"id_job":8,
					"score":0.005500
					},
					{"id_job":9,
					"score":0.007100
					},
					{"id_job":10,
					"score":0.003700
					},
					{"id_job":11,
					"score":0.008400
					},
					{"id_job":12,
					"score":0.007900
					},
					{"id_job":13,
					"score":0.007800
					},
					{"id_job":14,
					"score":0.008700
					},
					{"id_job":15,
					"score":0.033500
					},
					{"id_job":16,
					"score":0.004900
					},
					{"id_job":17,
					"score":0.002600
					},
					{"id_job":18,
					"score":0.004600
					},
					{"id_job":19,
					"score":0.176400
					},
					{"id_job":20,
					"score":0.004100
					},
					{"id_job":21,
					"score":0.002700
					},
					{"id_job":22,
					"score":0.046500
					},
					{"id_job":23,
					"score":0.004000
					},
					{"id_job":24,
					"score":0.011100
					},
					{"id_job":25,
					"score":0.004100
					},
					{"id_job":26,
					"score":0.027600
					},
					{"id_job":27,
					"score":0.006800
					}
				]
			}
		}