
		{"id_cv":1230,
			"cv":" He is a regular contributor to a number of publications, including the London Independent and is a columnist for OhMy News. He is a Japan Focus Coordinator. This is a slightly edited version of an article written for the Foreign Correspondent's Club of Japan's No. 1 Shimbun. Japan Focus August 28, 2005.",
			"y_p":6,
			"prediction": {
				"jobs": [
					{"id_job":0,
					"score":0.011500
					},
					{"id_job":1,
					"score":0.014100
					},
					{"id_job":2,
					"score":0.006100
					},
					{"id_job":3,
					"score":0.022400
					},
					{"id_job":4,
					"score":0.011100
					},
					{"id_job":5,
					"score":0.009000
					},
					{"id_job":6,
					"score":0.599300,
					"bow":[
						{"word":"news","weight":4.135912},
						{"word":"write","weight":3.603243},
						{"word":"correspond","weight":2.534931},
						{"word":"public","weight":1.858397},
						{"word":"articl","weight":1.297071},
						{"word":"columnist","weight":1.268012},
						{"word":"foreign","weight":1.117103},
						{"word":"japan","weight":0.983499},
						{"word":"edit","weight":0.964876},
						{"word":"contributor","weight":0.846025}]
					},
					{"id_job":7,
					"score":0.011600
					},
					{"id_job":8,
					"score":0.008900
					},
					{"id_job":9,
					"score":0.011200
					},
					{"id_job":10,
					"score":0.014700
					},
					{"id_job":11,
					"score":0.015100
					},
					{"id_job":12,
					"score":0.016400
					},
					{"id_job":13,
					"score":0.016100
					},
					{"id_job":14,
					"score":0.009400
					},
					{"id_job":15,
					"score":0.018700
					},
					{"id_job":16,
					"score":0.007300
					},
					{"id_job":17,
					"score":0.007400
					},
					{"id_job":18,
					"score":0.015100
					},
					{"id_job":19,
					"score":0.052600
					},
					{"id_job":20,
					"score":0.017000
					},
					{"id_job":21,
					"score":0.009900
					},
					{"id_job":22,
					"score":0.013400
					},
					{"id_job":23,
					"score":0.011700
					},
					{"id_job":24,
					"score":0.018700
					},
					{"id_job":25,
					"score":0.019400
					},
					{"id_job":26,
					"score":0.020800
					},
					{"id_job":27,
					"score":0.011300
					}
				]
			}
		}