
		{"id_cv":101073,
			"cv":" His work on modern Japanese history includes Lost and Found: Recovering Regional Identity in Imperial Japan (Harvard, forthcoming) and 'Tongues-Tied: The Making of a National Language and the Discovery of Dialects in Meiji Japan' in the American Historical Review (2010).",
			"y":19,
			"y_p":19,
			"prediction": {
				"jobs": [
					{"id_job":0,
					"score":0.018000
					},
					{"id_job":1,
					"score":0.032200
					},
					{"id_job":2,
					"score":0.008100
					},
					{"id_job":3,
					"score":0.055600
					},
					{"id_job":4,
					"score":0.014600
					},
					{"id_job":5,
					"score":0.060300
					},
					{"id_job":6,
					"score":0.066800
					},
					{"id_job":7,
					"score":0.022600
					},
					{"id_job":8,
					"score":0.019200
					},
					{"id_job":9,
					"score":0.021700
					},
					{"id_job":10,
					"score":0.015500
					},
					{"id_job":11,
					"score":0.028200
					},
					{"id_job":12,
					"score":0.027000
					},
					{"id_job":13,
					"score":0.031600
					},
					{"id_job":14,
					"score":0.020100
					},
					{"id_job":15,
					"score":0.112900
					},
					{"id_job":16,
					"score":0.015200
					},
					{"id_job":17,
					"score":0.010100
					},
					{"id_job":18,
					"score":0.035800
					},
					{"id_job":19,
					"score":0.174500,
					"bow":[
						{"word":"american","weight":2.712518},
						{"word":"histori","weight":2.182198},
						{"word":"includ","weight":1.813848},
						{"word":"modern","weight":0.906908},
						{"word":"harvard","weight":0.887477},
						{"word":"languag","weight":0.882242},
						{"word":"nation","weight":0.865105}]
					},
					{"id_job":20,
					"score":0.027400
					},
					{"id_job":21,
					"score":0.017400
					},
					{"id_job":22,
					"score":0.024400
					},
					{"id_job":23,
					"score":0.020000
					},
					{"id_job":24,
					"score":0.040100
					},
					{"id_job":25,
					"score":0.038900
					},
					{"id_job":26,
					"score":0.029800
					},
					{"id_job":27,
					"score":0.012100
					}
				]
			}
		}