
		{"id_cv":12031,
			"cv":" He previously served on the Heritage Valley Health System Board of Directors from 1997 to 2005. A graduate of West Virginia University and Duquesne University School of Law, Mr. Arbogast has been an adjunct professor at the University of Pittsburgh School of Law since 1995. He is a fellow in the American College of Tax Counsel, member of the American Bar Association, the Pennsylvania Bar Association and the Allegheny County Bar Association. He is also a member of the Aleppo Township Planning Committee and is on the Advisory Board of Big Brothers Big Sisters of Greater Pittsburgh. Mr. Arbogast and his wife reside in Sewickley.",
			"y_p":26,
			"prediction": {
				"jobs": [
					{"id_job":0,
					"score":0.004200
					},
					{"id_job":1,
					"score":0.002200
					},
					{"id_job":2,
					"score":0.000900
					},
					{"id_job":3,
					"score":0.009500
					},
					{"id_job":4,
					"score":0.001500
					},
					{"id_job":5,
					"score":0.001900
					},
					{"id_job":6,
					"score":0.003500
					},
					{"id_job":7,
					"score":0.001300
					},
					{"id_job":8,
					"score":0.008100
					},
					{"id_job":9,
					"score":0.020000
					},
					{"id_job":10,
					"score":0.002200
					},
					{"id_job":11,
					"score":0.013600
					},
					{"id_job":12,
					"score":0.003500
					},
					{"id_job":13,
					"score":0.001900
					},
					{"id_job":14,
					"score":0.004500
					},
					{"id_job":15,
					"score":0.002800
					},
					{"id_job":16,
					"score":0.005800
					},
					{"id_job":17,
					"score":0.003200
					},
					{"id_job":18,
					"score":0.002700
					},
					{"id_job":19,
					"score":0.018500
					},
					{"id_job":20,
					"score":0.001000
					},
					{"id_job":21,
					"score":0.002100
					},
					{"id_job":22,
					"score":0.007400
					},
					{"id_job":23,
					"score":0.014800
					},
					{"id_job":24,
					"score":0.003900
					},
					{"id_job":25,
					"score":0.001900
					},
					{"id_job":26,
					"score":0.853300,
					"bow":[
						{"word":"law","weight":7.796430},
						{"word":"bar","weight":2.940525},
						{"word":"counsel","weight":2.933131},
						{"word":"mr","weight":2.775107}]
					},
					{"id_job":27,
					"score":0.003700
					}
				]
			}
		}