
		{"id_cv":1257,
			"cv":" Australian in origin, he also holds Doctoral and Masters degrees from Université Laval (Québec, Canada) and a Bachelors degree in Forestry Science from the Australian National University. His research work focus on issues of First Nations’ roles in forestry, on public participation in land management more broadly and on the management of private woodlots in easstern Canada. Prior to joining the Université de Moncton, professor Wyatt spent 12 years as a professional forester and manager with government and non-government organisations in New South Wales, the South Pacific and Canada.",
			"y_p":19,
			"prediction": {
				"jobs": [
					{"id_job":0,
					"score":0.017000
					},
					{"id_job":1,
					"score":0.017300
					},
					{"id_job":2,
					"score":0.008400
					},
					{"id_job":3,
					"score":0.027400
					},
					{"id_job":4,
					"score":0.019800
					},
					{"id_job":5,
					"score":0.019500
					},
					{"id_job":6,
					"score":0.041100
					},
					{"id_job":7,
					"score":0.010700
					},
					{"id_job":8,
					"score":0.013700
					},
					{"id_job":9,
					"score":0.108900
					},
					{"id_job":10,
					"score":0.008100
					},
					{"id_job":11,
					"score":0.043000
					},
					{"id_job":12,
					"score":0.012400
					},
					{"id_job":13,
					"score":0.055200
					},
					{"id_job":14,
					"score":0.026000
					},
					{"id_job":15,
					"score":0.014200
					},
					{"id_job":16,
					"score":0.009900
					},
					{"id_job":17,
					"score":0.010300
					},
					{"id_job":18,
					"score":0.013700
					},
					{"id_job":19,
					"score":0.304600,
					"bow":[
						{"word":"research","weight":6.855651},
						{"word":"univers","weight":3.944963},
						{"word":"focus","weight":2.717839}]
					},
					{"id_job":20,
					"score":0.015600
					},
					{"id_job":21,
					"score":0.009500
					},
					{"id_job":22,
					"score":0.047700
					},
					{"id_job":23,
					"score":0.038300
					},
					{"id_job":24,
					"score":0.041100
					},
					{"id_job":25,
					"score":0.012500
					},
					{"id_job":26,
					"score":0.026000
					},
					{"id_job":27,
					"score":0.028100
					}
				]
			}
		}