
		{"id_cv":12002,
			"cv":" She has also written several biographies, including books on Katharine Graham and Alice Roosevelt Longworth. Her book about Bill Clinton’s post presidency, Clinton in Exile: A President Out of the White House, was published by William Morrow/HarperCollins in May. She lives in Chicago.",
			"y_p":6,
			"prediction": {
				"jobs": [
					{"id_job":0,
					"score":0.058300
					},
					{"id_job":1,
					"score":0.028500
					},
					{"id_job":2,
					"score":0.015700
					},
					{"id_job":3,
					"score":0.059500
					},
					{"id_job":4,
					"score":0.013900
					},
					{"id_job":5,
					"score":0.019300
					},
					{"id_job":6,
					"score":0.141700,
					"bow":[
						{"word":"write","weight":3.603243}]
					},
					{"id_job":7,
					"score":0.026000
					},
					{"id_job":8,
					"score":0.027800
					},
					{"id_job":9,
					"score":0.029500
					},
					{"id_job":10,
					"score":0.032500
					},
					{"id_job":11,
					"score":0.020600
					},
					{"id_job":12,
					"score":0.042700
					},
					{"id_job":13,
					"score":0.023100
					},
					{"id_job":14,
					"score":0.026200
					},
					{"id_job":15,
					"score":0.104300
					},
					{"id_job":16,
					"score":0.023800
					},
					{"id_job":17,
					"score":0.012300
					},
					{"id_job":18,
					"score":0.013600
					},
					{"id_job":19,
					"score":0.045300
					},
					{"id_job":20,
					"score":0.034900
					},
					{"id_job":21,
					"score":0.016200
					},
					{"id_job":22,
					"score":0.042400
					},
					{"id_job":23,
					"score":0.018300
					},
					{"id_job":24,
					"score":0.040000
					},
					{"id_job":25,
					"score":0.021600
					},
					{"id_job":26,
					"score":0.040200
					},
					{"id_job":27,
					"score":0.021700
					}
				]
			}
		}