
		{"id_cv":101004,
			"cv":" Her radio show, Shrink Rap, airs weekly on KCSN in Los Angeles. She is a regular contributor to the syndicated TV talk show The Larry Elder Showand has appeared on numerous other TV shows.",
			"y":22,
			"y_p":12,
			"prediction": {
				"jobs": [
					{"id_job":0,
					"score":0.022500
					},
					{"id_job":1,
					"score":0.076300
					},
					{"id_job":2,
					"score":0.008700
					},
					{"id_job":3,
					"score":0.017300
					},
					{"id_job":4,
					"score":0.011000
					},
					{"id_job":5,
					"score":0.014700
					},
					{"id_job":6,
					"score":0.108800
					},
					{"id_job":7,
					"score":0.011000
					},
					{"id_job":8,
					"score":0.016400
					},
					{"id_job":9,
					"score":0.013000
					},
					{"id_job":10,
					"score":0.036600
					},
					{"id_job":11,
					"score":0.017100
					},
					{"id_job":12,
					"score":0.336400,
					"bow":[
						{"word":"appear","weight":2.439430},
						{"word":"show","weight":1.807074},
						{"word":"tv","weight":1.725583},
						{"word":"talk","weight":1.307169},
						{"word":"regular","weight":1.219702},
						{"word":"radio","weight":1.051095}]
					},
					{"id_job":13,
					"score":0.010100
					},
					{"id_job":14,
					"score":0.014300
					},
					{"id_job":15,
					"score":0.020600
					},
					{"id_job":16,
					"score":0.013900
					},
					{"id_job":17,
					"score":0.010900
					},
					{"id_job":18,
					"score":0.013800
					},
					{"id_job":19,
					"score":0.009300
					},
					{"id_job":20,
					"score":0.016000
					},
					{"id_job":21,
					"score":0.106500
					},
					{"id_job":22,
					"score":0.026200
					},
					{"id_job":23,
					"score":0.009600
					},
					{"id_job":24,
					"score":0.012500
					},
					{"id_job":25,
					"score":0.012600
					},
					{"id_job":26,
					"score":0.022900
					},
					{"id_job":27,
					"score":0.011100
					}
				]
			}
		}