
		{"id_cv":12024,
			"cv":" He joined the COM in 2004 and currently teaches courses in Corporate Finance and Investments. Professor Freund has previously taught at Pennsylvania State University, the University of Detroit Mercy, and Suffolk University. The Robert J. Manning School of Business, One University Avenue, Lowell, MA 01854 Undergraduate Phone: 978-934-2850, Fax: 978-934-3011",
			"y_p":19,
			"prediction": {
				"jobs": [
					{"id_job":0,
					"score":0.028100
					},
					{"id_job":1,
					"score":0.011200
					},
					{"id_job":2,
					"score":0.014100
					},
					{"id_job":3,
					"score":0.114000
					},
					{"id_job":4,
					"score":0.013100
					},
					{"id_job":5,
					"score":0.010000
					},
					{"id_job":6,
					"score":0.017600
					},
					{"id_job":7,
					"score":0.006600
					},
					{"id_job":8,
					"score":0.021600
					},
					{"id_job":9,
					"score":0.114300
					},
					{"id_job":10,
					"score":0.007200
					},
					{"id_job":11,
					"score":0.036600
					},
					{"id_job":12,
					"score":0.011300
					},
					{"id_job":13,
					"score":0.030000
					},
					{"id_job":14,
					"score":0.012900
					},
					{"id_job":15,
					"score":0.021100
					},
					{"id_job":16,
					"score":0.014700
					},
					{"id_job":17,
					"score":0.009700
					},
					{"id_job":18,
					"score":0.010600
					},
					{"id_job":19,
					"score":0.290600,
					"bow":[
						{"word":"univers","weight":3.944963},
						{"word":"cours","weight":2.964529},
						{"word":"teach","weight":2.863140}]
					},
					{"id_job":20,
					"score":0.009600
					},
					{"id_job":21,
					"score":0.005900
					},
					{"id_job":22,
					"score":0.044100
					},
					{"id_job":23,
					"score":0.030000
					},
					{"id_job":24,
					"score":0.018800
					},
					{"id_job":25,
					"score":0.013800
					},
					{"id_job":26,
					"score":0.065900
					},
					{"id_job":27,
					"score":0.016700
					}
				]
			}
		}