
		{"id_cv":101039,
			"cv":" She received her doctoral degree in English and her certificate in Theatre and Performance from The Ohio State University. Her teaching and research areas include world literature, postcolonial studies, Asian/Asian American studies, gender studies, and performance studies. Her current research focuses on how Korean traditional puppet theatre preserves, alters, and adapts Korea's pre-colonial/indigenous memory in its performance repertoires for contemporary audiences, with particular attention to indigenous memory, gender, and the changing nature of the audience. She is co-editor of Compact Anthology of World Literature (UNGP, 2015), an open access textbook funded by a Complete College Georgia Grant. Her articles and reviews have appeared in Asian Theatre Journal, Journal of Dramatic Theory and Criticism, Theatre Survey, Theatre Journal, Pinter Et Cetera, and Text & Presentation.",
			"y":19,
			"y_p":19,
			"prediction": {
				"jobs": [
					{"id_job":0,
					"score":0.008000
					},
					{"id_job":1,
					"score":0.005600
					},
					{"id_job":2,
					"score":0.007200
					},
					{"id_job":3,
					"score":0.022700
					},
					{"id_job":4,
					"score":0.004500
					},
					{"id_job":5,
					"score":0.007300
					},
					{"id_job":6,
					"score":0.022000
					},
					{"id_job":7,
					"score":0.003500
					},
					{"id_job":8,
					"score":0.008600
					},
					{"id_job":9,
					"score":0.004000
					},
					{"id_job":10,
					"score":0.003600
					},
					{"id_job":11,
					"score":0.018400
					},
					{"id_job":12,
					"score":0.028200
					},
					{"id_job":13,
					"score":0.005300
					},
					{"id_job":14,
					"score":0.004800
					},
					{"id_job":15,
					"score":0.055000
					},
					{"id_job":16,
					"score":0.004500
					},
					{"id_job":17,
					"score":0.004500
					},
					{"id_job":18,
					"score":0.007900
					},
					{"id_job":19,
					"score":0.682600,
					"bow":[
						{"word":"research","weight":6.855651},
						{"word":"univers","weight":3.944963},
						{"word":"journal","weight":2.923805},
						{"word":"teach","weight":2.863140},
						{"word":"focus","weight":2.717839},
						{"word":"american","weight":2.712518},
						{"word":"studi","weight":2.168236},
						{"word":"theori","weight":2.017170},
						{"word":"receiv","weight":1.900002},
						{"word":"literatur","weight":1.866656},
						{"word":"includ","weight":1.813848},
						{"word":"gender","weight":1.494273},
						{"word":"articl","weight":1.458688},
						{"word":"area","weight":1.435328},
						{"word":"editor","weight":1.054379},
						{"word":"doctor","weight":1.046718}]
					},
					{"id_job":20,
					"score":0.005000
					},
					{"id_job":21,
					"score":0.003000
					},
					{"id_job":22,
					"score":0.022600
					},
					{"id_job":23,
					"score":0.009600
					},
					{"id_job":24,
					"score":0.010500
					},
					{"id_job":25,
					"score":0.028300
					},
					{"id_job":26,
					"score":0.007200
					},
					{"id_job":27,
					"score":0.005500
					}
				]
			}
		}