
		{"id_cv":111,
			"cv":" She represents people and families who have been injured and need help. She represents people who have been accused of crimes. She does not represent “big business” or insurance companies. Elaine has particular strengths in choosing forensic and medical experts and in investigating and interpreting forensic and medical issues for judges and juries in criminal and civil cases. Elaine has taught the principles of scientific evidence to lawyers and to forensic scientists at national conferences and has written about these issues in a major forensic textbook. (Go to: http://www.amazon.com/Forensic-Neuropathology-Second-Jan-Leestma/dp/0849391679#reader_0849391679 )",
			"y":26,
			"y_p":26,
			"prediction": {
				"jobs": [
					{"id_job":0,
					"score":0.020300
					},
					{"id_job":1,
					"score":0.025900
					},
					{"id_job":2,
					"score":0.014000
					},
					{"id_job":3,
					"score":0.045300
					},
					{"id_job":4,
					"score":0.023700
					},
					{"id_job":5,
					"score":0.015000
					},
					{"id_job":6,
					"score":0.032200
					},
					{"id_job":7,
					"score":0.013000
					},
					{"id_job":8,
					"score":0.030000
					},
					{"id_job":9,
					"score":0.042400
					},
					{"id_job":10,
					"score":0.012500
					},
					{"id_job":11,
					"score":0.054700
					},
					{"id_job":12,
					"score":0.021400
					},
					{"id_job":13,
					"score":0.015200
					},
					{"id_job":14,
					"score":0.028800
					},
					{"id_job":15,
					"score":0.012300
					},
					{"id_job":16,
					"score":0.016900
					},
					{"id_job":17,
					"score":0.014700
					},
					{"id_job":18,
					"score":0.019100
					},
					{"id_job":19,
					"score":0.045800
					},
					{"id_job":20,
					"score":0.015200
					},
					{"id_job":21,
					"score":0.016200
					},
					{"id_job":22,
					"score":0.053100
					},
					{"id_job":23,
					"score":0.023900
					},
					{"id_job":24,
					"score":0.017900
					},
					{"id_job":25,
					"score":0.012500
					},
					{"id_job":26,
					"score":0.341300,
					"bow":[
						{"word":"case","weight":3.351589},
						{"word":"repres","weight":3.115377},
						{"word":"lawyer","weight":2.815452},
						{"word":"issu","weight":2.054725},
						{"word":"juri","weight":1.736557},
						{"word":"busi","weight":1.573878},
						{"word":"civil","weight":1.391770},
						{"word":"com","weight":1.221091},
						{"word":"judg","weight":1.160490},
						{"word":"compani","weight":0.830509},
						{"word":"crimin","weight":0.769696}]
					},
					{"id_job":27,
					"score":0.016600
					}
				]
			}
		}