
		{"id_cv":1268,
			"cv":" Corey is a three-time recipient of the Microsoft MVP award in SharePoint Server. Corey has always focused on rapid adoption of new Microsoft technologies including SharePoint 2013, Visual Studio 2012, and .NET Framework 4.5. When it comes to SharePoint, he specializes in ECM, Enterprise Search, and Apps. As an active member of the SharePoint community, he often speaks at user groups and conferences. Corey is a member of the .NET Mafia (www.dotnetmafia.com) where he blogs about the latest technology and SharePoint. Corey is a member of the board for the Houston SharePoint Users Group. He has also recently founded an App development company called SP2 (www.sp2apps.com), specializing in apps for SharePoint 2013.",
			"y_p":24,
			"prediction": {
				"jobs": [
					{"id_job":0,
					"score":0.021300
					},
					{"id_job":1,
					"score":0.014000
					},
					{"id_job":2,
					"score":0.008100
					},
					{"id_job":3,
					"score":0.024100
					},
					{"id_job":4,
					"score":0.015400
					},
					{"id_job":5,
					"score":0.014100
					},
					{"id_job":6,
					"score":0.026200
					},
					{"id_job":7,
					"score":0.011200
					},
					{"id_job":8,
					"score":0.014500
					},
					{"id_job":9,
					"score":0.024700
					},
					{"id_job":10,
					"score":0.012400
					},
					{"id_job":11,
					"score":0.022100
					},
					{"id_job":12,
					"score":0.015000
					},
					{"id_job":13,
					"score":0.099100
					},
					{"id_job":14,
					"score":0.014600
					},
					{"id_job":15,
					"score":0.012100
					},
					{"id_job":16,
					"score":0.012500
					},
					{"id_job":17,
					"score":0.008800
					},
					{"id_job":18,
					"score":0.013700
					},
					{"id_job":19,
					"score":0.018000
					},
					{"id_job":20,
					"score":0.016100
					},
					{"id_job":21,
					"score":0.025100
					},
					{"id_job":22,
					"score":0.021100
					},
					{"id_job":23,
					"score":0.012100
					},
					{"id_job":24,
					"score":0.471800,
					"bow":[
						{"word":"microsoft","weight":3.792167},
						{"word":"develop","weight":3.253993},
						{"word":"technolog","weight":3.068757},
						{"word":"enterpris","weight":2.594730}]
					},
					{"id_job":25,
					"score":0.016200
					},
					{"id_job":26,
					"score":0.026200
					},
					{"id_job":27,
					"score":0.009500
					}
				]
			}
		}