
		{"id_cv":127,
			"cv":" She is the recipient of several awards including a Pirate's Alley/Faulkner prize for her novel, Four Corners, an Arizona Commission of the Arts Award in Fiction, and the Phoenix's Arts Commission for a collaboration with the artist, Rose Johnson. A single mother, Freund began writing seriously when an English teacher at the community college she began attending classes remarked on her talent. She continued working as a waitress and writing for eighteen years before she was awarded a teaching assistantship as a graduate student in the MFA program at the University of Arizona. She currently lives in the high desert with her partner, the poet, Pat Hawks. Photo by Ike Dent What's this? ",
			"y":19,
			"y_p":3,
			"prediction": {
				"jobs": [
					{"id_job":0,
					"score":0.027400
					},
					{"id_job":1,
					"score":0.018500
					},
					{"id_job":2,
					"score":0.030400
					},
					{"id_job":3,
					"score":0.244800,
					"bow":[
						{"word":"teach","weight":6.447245},
						{"word":"student","weight":5.761793},
						{"word":"teacher","weight":5.578686},
						{"word":"english","weight":1.787910},
						{"word":"write","weight":1.604387},
						{"word":"novel","weight":1.236612},
						{"word":"class","weight":1.034283},
						{"word":"fiction","weight":0.946569},
						{"word":"year","weight":0.821522}]
					},
					{"id_job":4,
					"score":0.010600
					},
					{"id_job":5,
					"score":0.065300
					},
					{"id_job":6,
					"score":0.043100
					},
					{"id_job":7,
					"score":0.013400
					},
					{"id_job":8,
					"score":0.011100
					},
					{"id_job":9,
					"score":0.014500
					},
					{"id_job":10,
					"score":0.010700
					},
					{"id_job":11,
					"score":0.012300
					},
					{"id_job":12,
					"score":0.016400
					},
					{"id_job":13,
					"score":0.012600
					},
					{"id_job":14,
					"score":0.019100
					},
					{"id_job":15,
					"score":0.148400
					},
					{"id_job":16,
					"score":0.008300
					},
					{"id_job":17,
					"score":0.008600
					},
					{"id_job":18,
					"score":0.033700
					},
					{"id_job":19,
					"score":0.086400
					},
					{"id_job":20,
					"score":0.037900
					},
					{"id_job":21,
					"score":0.017300
					},
					{"id_job":22,
					"score":0.014400
					},
					{"id_job":23,
					"score":0.016600
					},
					{"id_job":24,
					"score":0.019400
					},
					{"id_job":25,
					"score":0.031800
					},
					{"id_job":26,
					"score":0.015900
					},
					{"id_job":27,
					"score":0.011000
					}
				]
			}
		}