
		{"id_cv":1244,
			"cv":" Her column appears every Friday in Living and her nutrition video blog appears every Tuesday on nola.com/health. She can be reached at eatingright@timespicayune.com. For more on Tales of the Cocktail, visit nola.com/drink or talesofthecocktail.com.",
			"y_p":27,
			"prediction": {
				"jobs": [
					{"id_job":0,
					"score":0.037900
					},
					{"id_job":1,
					"score":0.038200
					},
					{"id_job":2,
					"score":0.017800
					},
					{"id_job":3,
					"score":0.021400
					},
					{"id_job":4,
					"score":0.060800
					},
					{"id_job":5,
					"score":0.017800
					},
					{"id_job":6,
					"score":0.142200
					},
					{"id_job":7,
					"score":0.018200
					},
					{"id_job":8,
					"score":0.014000
					},
					{"id_job":9,
					"score":0.014000
					},
					{"id_job":10,
					"score":0.022700
					},
					{"id_job":11,
					"score":0.032600
					},
					{"id_job":12,
					"score":0.050600
					},
					{"id_job":13,
					"score":0.018800
					},
					{"id_job":14,
					"score":0.023200
					},
					{"id_job":15,
					"score":0.020700
					},
					{"id_job":16,
					"score":0.023600
					},
					{"id_job":17,
					"score":0.029300
					},
					{"id_job":18,
					"score":0.020000
					},
					{"id_job":19,
					"score":0.009500
					},
					{"id_job":20,
					"score":0.021300
					},
					{"id_job":21,
					"score":0.025300
					},
					{"id_job":22,
					"score":0.037700
					},
					{"id_job":23,
					"score":0.008300
					},
					{"id_job":24,
					"score":0.016900
					},
					{"id_job":25,
					"score":0.013200
					},
					{"id_job":26,
					"score":0.036800
					},
					{"id_job":27,
					"score":0.207300,
					"bow":[
						{"word":"nutrit","weight":12.001671},
						{"word":"health","weight":2.978692}]
					}
				]
			}
		}