
		{"id_cv":1315,
			"cv":" She uses cases in all of her courses, including the introductory course for biology majors and the introductory course for health and human sciences that she teaches. She added that she is looking forward to using cases this spring in her immunology classes.",
			"y_p":19,
			"prediction": {
				"jobs": [
					{"id_job":0,
					"score":0.017000
					},
					{"id_job":1,
					"score":0.028800
					},
					{"id_job":2,
					"score":0.031500
					},
					{"id_job":3,
					"score":0.075400
					},
					{"id_job":4,
					"score":0.021600
					},
					{"id_job":5,
					"score":0.013900
					},
					{"id_job":6,
					"score":0.015100
					},
					{"id_job":7,
					"score":0.015300
					},
					{"id_job":8,
					"score":0.012800
					},
					{"id_job":9,
					"score":0.016400
					},
					{"id_job":10,
					"score":0.017000
					},
					{"id_job":11,
					"score":0.062100
					},
					{"id_job":12,
					"score":0.016600
					},
					{"id_job":13,
					"score":0.019400
					},
					{"id_job":14,
					"score":0.021600
					},
					{"id_job":15,
					"score":0.012300
					},
					{"id_job":16,
					"score":0.020100
					},
					{"id_job":17,
					"score":0.016200
					},
					{"id_job":18,
					"score":0.018600
					},
					{"id_job":19,
					"score":0.344000,
					"bow":[
						{"word":"cours","weight":2.964529},
						{"word":"teach","weight":2.863140}]
					},
					{"id_job":20,
					"score":0.021300
					},
					{"id_job":21,
					"score":0.017400
					},
					{"id_job":22,
					"score":0.027100
					},
					{"id_job":23,
					"score":0.037900
					},
					{"id_job":24,
					"score":0.015100
					},
					{"id_job":25,
					"score":0.011100
					},
					{"id_job":26,
					"score":0.047300
					},
					{"id_job":27,
					"score":0.027000
					}
				]
			}
		}