
		{"id_cv":167,
			"cv":" Connect with him at http://www.rtastudio.com/index.htm.Note: The views and opinions expressed in this article are those of the author and do not necessarily reflect the opinion or position of Zillow. 8commentsExplore related topics: featured, real-estate, home-improvement, remodelPeople.com",
			"y":24,
			"y_p":26,
			"prediction": {
				"jobs": [
					{"id_job":0,
					"score":0.035200
					},
					{"id_job":1,
					"score":0.023200
					},
					{"id_job":2,
					"score":0.014700
					},
					{"id_job":3,
					"score":0.046400
					},
					{"id_job":4,
					"score":0.038200
					},
					{"id_job":5,
					"score":0.026400
					},
					{"id_job":6,
					"score":0.083000
					},
					{"id_job":7,
					"score":0.048000
					},
					{"id_job":8,
					"score":0.018100
					},
					{"id_job":9,
					"score":0.031800
					},
					{"id_job":10,
					"score":0.012500
					},
					{"id_job":11,
					"score":0.027500
					},
					{"id_job":12,
					"score":0.035900
					},
					{"id_job":13,
					"score":0.033600
					},
					{"id_job":14,
					"score":0.021800
					},
					{"id_job":15,
					"score":0.025000
					},
					{"id_job":16,
					"score":0.015900
					},
					{"id_job":17,
					"score":0.013100
					},
					{"id_job":18,
					"score":0.019000
					},
					{"id_job":19,
					"score":0.032400
					},
					{"id_job":20,
					"score":0.023600
					},
					{"id_job":21,
					"score":0.026700
					},
					{"id_job":22,
					"score":0.098800
					},
					{"id_job":23,
					"score":0.023800
					},
					{"id_job":24,
					"score":0.047800
					},
					{"id_job":25,
					"score":0.026300
					},
					{"id_job":26,
					"score":0.131800,
					"bow":[
						{"word":"articl","weight":1.317122},
						{"word":"relat","weight":1.291831},
						{"word":"com","weight":1.221091},
						{"word":"estat","weight":0.854490}]
					},
					{"id_job":27,
					"score":0.019400
					}
				]
			}
		}