
		{"id_cv":12040,
			"cv":" Gary has completed several home courses with the Open University, as well as winning several small photography competitions at his local camera club in Dover.",
			"y_p":20,
			"prediction": {
				"jobs": [
					{"id_job":0,
					"score":0.024600
					},
					{"id_job":1,
					"score":0.026400
					},
					{"id_job":2,
					"score":0.011400
					},
					{"id_job":3,
					"score":0.023800
					},
					{"id_job":4,
					"score":0.026700
					},
					{"id_job":5,
					"score":0.010700
					},
					{"id_job":6,
					"score":0.018400
					},
					{"id_job":7,
					"score":0.058600
					},
					{"id_job":8,
					"score":0.024200
					},
					{"id_job":9,
					"score":0.027100
					},
					{"id_job":10,
					"score":0.046100
					},
					{"id_job":11,
					"score":0.030100
					},
					{"id_job":12,
					"score":0.029700
					},
					{"id_job":13,
					"score":0.024300
					},
					{"id_job":14,
					"score":0.021400
					},
					{"id_job":15,
					"score":0.025000
					},
					{"id_job":16,
					"score":0.016800
					},
					{"id_job":17,
					"score":0.012700
					},
					{"id_job":18,
					"score":0.032200
					},
					{"id_job":19,
					"score":0.063600
					},
					{"id_job":20,
					"score":0.316800,
					"bow":[
						{"word":"photographi","weight":9.549496},
						{"word":"camera","weight":2.927429}]
					},
					{"id_job":21,
					"score":0.014300
					},
					{"id_job":22,
					"score":0.017800
					},
					{"id_job":23,
					"score":0.014000
					},
					{"id_job":24,
					"score":0.038200
					},
					{"id_job":25,
					"score":0.011800
					},
					{"id_job":26,
					"score":0.019900
					},
					{"id_job":27,
					"score":0.013400
					}
				]
			}
		}