
		{"id_cv":101084,
			"cv":" Dr. Fan is a graduate of the University of Texas Health Science Center at San Antonio, School of Medicine and a graduate of Oakwood Hospital & Medical Center's residency program. Areas of expertise for Dr. Fan include MRI (magnetic resonance imaging), myelogram (spinal cord imaging), and fine needle aspiration (FNA). He accepts Blue Cross/Blue Shield, Coventry, and Viant, as well as other insurance carriers. His hospital/clinic affiliations include South Jersey Radiology Associates (SJRA) and Virtua Physician Partners.",
			"y":11,
			"y_p":11,
			"prediction": {
				"jobs": [
					{"id_job":0,
					"score":0.004300
					},
					{"id_job":1,
					"score":0.003400
					},
					{"id_job":2,
					"score":0.002800
					},
					{"id_job":3,
					"score":0.003800
					},
					{"id_job":4,
					"score":0.002700
					},
					{"id_job":5,
					"score":0.005200
					},
					{"id_job":6,
					"score":0.005500
					},
					{"id_job":7,
					"score":0.002800
					},
					{"id_job":8,
					"score":0.126000
					},
					{"id_job":9,
					"score":0.005100
					},
					{"id_job":10,
					"score":0.003200
					},
					{"id_job":11,
					"score":0.369400,
					"bow":[
						{"word":"medicin","weight":7.345156},
						{"word":"medic","weight":5.774218},
						{"word":"physician","weight":5.693767},
						{"word":"clinic","weight":3.742746},
						{"word":"dr","weight":3.665001},
						{"word":"health","weight":3.634892},
						{"word":"resid","weight":2.042057},
						{"word":"hospit","weight":1.947824},
						{"word":"univers","weight":1.465942},
						{"word":"scienc","weight":0.976954},
						{"word":"program","weight":0.890390},
						{"word":"radiolog","weight":0.709499}]
					},
					{"id_job":12,
					"score":0.003000
					},
					{"id_job":13,
					"score":0.006100
					},
					{"id_job":14,
					"score":0.024500
					},
					{"id_job":15,
					"score":0.004700
					},
					{"id_job":16,
					"score":0.245000
					},
					{"id_job":17,
					"score":0.080300
					},
					{"id_job":18,
					"score":0.003700
					},
					{"id_job":19,
					"score":0.025900
					},
					{"id_job":20,
					"score":0.010000
					},
					{"id_job":21,
					"score":0.005200
					},
					{"id_job":22,
					"score":0.018800
					},
					{"id_job":23,
					"score":0.006000
					},
					{"id_job":24,
					"score":0.004100
					},
					{"id_job":25,
					"score":0.002900
					},
					{"id_job":26,
					"score":0.007900
					},
					{"id_job":27,
					"score":0.017900
					}
				]
			}
		}