
		{"id_cv":12035,
			"cv":" He has been capturing the world around him ever since he was a child and his father gave him a camera. In the beginning, he was fascinated with shooting staged scenes from popular action movies and car crashes. Metinides continued to develop his artistic language in that direction so he retired in 1997 as well known crime photographer. His work capturing themes such as crime scenes, car crash, and natural catastrophes gained him recognition in the art world and won him numerous awards.",
			"y_p":20,
			"prediction": {
				"jobs": [
					{"id_job":0,
					"score":0.007600
					},
					{"id_job":1,
					"score":0.060600
					},
					{"id_job":2,
					"score":0.006200
					},
					{"id_job":3,
					"score":0.017700
					},
					{"id_job":4,
					"score":0.006200
					},
					{"id_job":5,
					"score":0.074400
					},
					{"id_job":6,
					"score":0.015800
					},
					{"id_job":7,
					"score":0.010600
					},
					{"id_job":8,
					"score":0.008000
					},
					{"id_job":9,
					"score":0.007500
					},
					{"id_job":10,
					"score":0.027300
					},
					{"id_job":11,
					"score":0.007100
					},
					{"id_job":12,
					"score":0.017800
					},
					{"id_job":13,
					"score":0.018500
					},
					{"id_job":14,
					"score":0.006400
					},
					{"id_job":15,
					"score":0.016800
					},
					{"id_job":16,
					"score":0.005000
					},
					{"id_job":17,
					"score":0.007400
					},
					{"id_job":18,
					"score":0.038900
					},
					{"id_job":19,
					"score":0.011300
					},
					{"id_job":20,
					"score":0.542300,
					"bow":[
						{"word":"photograph","weight":9.205370},
						{"word":"shoot","weight":3.367657},
						{"word":"work","weight":3.083175},
						{"word":"camera","weight":2.927429}]
					},
					{"id_job":21,
					"score":0.030000
					},
					{"id_job":22,
					"score":0.009300
					},
					{"id_job":23,
					"score":0.008300
					},
					{"id_job":24,
					"score":0.009900
					},
					{"id_job":25,
					"score":0.018500
					},
					{"id_job":26,
					"score":0.007300
					},
					{"id_job":27,
					"score":0.003600
					}
				]
			}
		}