
		{"id_cv":12018,
			"cv":" Most recently, Dr. Jain was a clinical instructor in the Department of Surgery at the Johns Hopkins School of Medicine. A graduate of the the University of Virginia School of Medicine, Dr. Jain continued his training as general surgery resident at Johns Hopkins, where he also completed a research fellowship in immunology and oncology and a clinical fellowship in surgical oncology.",
			"y_p":8,
			"prediction": {
				"jobs": [
					{"id_job":0,
					"score":0.001700
					},
					{"id_job":1,
					"score":0.001600
					},
					{"id_job":2,
					"score":0.001000
					},
					{"id_job":3,
					"score":0.002900
					},
					{"id_job":4,
					"score":0.001800
					},
					{"id_job":5,
					"score":0.001400
					},
					{"id_job":6,
					"score":0.001600
					},
					{"id_job":7,
					"score":0.000700
					},
					{"id_job":8,
					"score":0.769100,
					"bow":[
						{"word":"surgeri","weight":8.140944},
						{"word":"dr","weight":5.954222},
						{"word":"surgic","weight":4.005586}]
					},
					{"id_job":9,
					"score":0.001100
					},
					{"id_job":10,
					"score":0.001200
					},
					{"id_job":11,
					"score":0.154500
					},
					{"id_job":12,
					"score":0.001200
					},
					{"id_job":13,
					"score":0.000800
					},
					{"id_job":14,
					"score":0.004500
					},
					{"id_job":15,
					"score":0.001700
					},
					{"id_job":16,
					"score":0.009100
					},
					{"id_job":17,
					"score":0.004400
					},
					{"id_job":18,
					"score":0.001000
					},
					{"id_job":19,
					"score":0.019900
					},
					{"id_job":20,
					"score":0.001000
					},
					{"id_job":21,
					"score":0.001100
					},
					{"id_job":22,
					"score":0.008700
					},
					{"id_job":23,
					"score":0.001100
					},
					{"id_job":24,
					"score":0.001200
					},
					{"id_job":25,
					"score":0.001700
					},
					{"id_job":26,
					"score":0.002100
					},
					{"id_job":27,
					"score":0.002000
					}
				]
			}
		}