
		{"id_cv":141,
			"cv":" He has been married to his wife, Brenda, for 22 years, and they have two sons, Jimmy (16) and Patrick (11). In his professional capacity, he travels frequently, with cases in Philadelphia, Alaska, Hawaii, and California. His clients are quite diverse, and include farmworkers in California, Congressmen in Washington (challenging an Executive Order issued by Bill Clinton), pro football players with the Washington Redskins, and Barry Williams (big brother Greg on the Brady Bunch). From 1998 until 2005, he was a weekly political columnist for the Potomac News in Woodbridge, Virginia. He is active in Virginia Republican politics, and is a member of the Federalist Society.",
			"y":26,
			"y_p":26,
			"prediction": {
				"jobs": [
					{"id_job":0,
					"score":0.047600
					},
					{"id_job":1,
					"score":0.019800
					},
					{"id_job":2,
					"score":0.009900
					},
					{"id_job":3,
					"score":0.022300
					},
					{"id_job":4,
					"score":0.023300
					},
					{"id_job":5,
					"score":0.013200
					},
					{"id_job":6,
					"score":0.111000
					},
					{"id_job":7,
					"score":0.019000
					},
					{"id_job":8,
					"score":0.025000
					},
					{"id_job":9,
					"score":0.036300
					},
					{"id_job":10,
					"score":0.014200
					},
					{"id_job":11,
					"score":0.024800
					},
					{"id_job":12,
					"score":0.032400
					},
					{"id_job":13,
					"score":0.017000
					},
					{"id_job":14,
					"score":0.026500
					},
					{"id_job":15,
					"score":0.013200
					},
					{"id_job":16,
					"score":0.017800
					},
					{"id_job":17,
					"score":0.010700
					},
					{"id_job":18,
					"score":0.017000
					},
					{"id_job":19,
					"score":0.028900
					},
					{"id_job":20,
					"score":0.018300
					},
					{"id_job":21,
					"score":0.015900
					},
					{"id_job":22,
					"score":0.037800
					},
					{"id_job":23,
					"score":0.033000
					},
					{"id_job":24,
					"score":0.019900
					},
					{"id_job":25,
					"score":0.018200
					},
					{"id_job":26,
					"score":0.311900,
					"bow":[
						{"word":"case","weight":3.351589},
						{"word":"client","weight":2.336133},
						{"word":"issu","weight":2.054725},
						{"word":"polit","weight":1.336083},
						{"word":"california","weight":1.250628},
						{"word":"member","weight":0.999303},
						{"word":"pro","weight":0.824685},
						{"word":"execut","weight":0.791280},
						{"word":"washington","weight":0.738712}]
					},
					{"id_job":27,
					"score":0.015100
					}
				]
			}
		}