
		{"id_cv":101037,
			"cv":" She has previously taught at Georgia State University, California State University at Los Angeles and West Georgia University. Her educational qualifications include a Ph.D. in Business Administration (Major: Accounting, 1984), a Masters degree in Professional Accounting (1982), and an MBA (Major: Marketing, 1978) all from Georgia State University, Atlanta. She received her undergraduate degree (B. Com.) in Advanced Accounting and Auditing from Sydenham College (under Bombay University) in India. Professor Gokarn’s research interests include: international accounting, ethics in accounting and the status of women in the accounting profession. Her scholarly accomplishments include journal articles and numerous presentations in regional, national and international conferences.",
			"y":19,
			"y_p":9,
			"prediction": {
				"jobs": [
					{"id_job":0,
					"score":0.002100
					},
					{"id_job":1,
					"score":0.000600
					},
					{"id_job":2,
					"score":0.000600
					},
					{"id_job":3,
					"score":0.004200
					},
					{"id_job":4,
					"score":0.000800
					},
					{"id_job":5,
					"score":0.000900
					},
					{"id_job":6,
					"score":0.003400
					},
					{"id_job":7,
					"score":0.000500
					},
					{"id_job":8,
					"score":0.002500
					},
					{"id_job":9,
					"score":0.770000,
					"bow":[
						{"word":"account","weight":8.854614},
						{"word":"busi","weight":4.515754},
						{"word":"audit","weight":3.311765},
						{"word":"administr","weight":1.356036},
						{"word":"profession","weight":0.944468},
						{"word":"mba","weight":0.787722},
						{"word":"previous","weight":0.740670},
						{"word":"india","weight":0.708541}]
					},
					{"id_job":10,
					"score":0.000300
					},
					{"id_job":11,
					"score":0.004400
					},
					{"id_job":12,
					"score":0.000600
					},
					{"id_job":13,
					"score":0.001600
					},
					{"id_job":14,
					"score":0.001700
					},
					{"id_job":15,
					"score":0.001100
					},
					{"id_job":16,
					"score":0.001000
					},
					{"id_job":17,
					"score":0.000800
					},
					{"id_job":18,
					"score":0.000900
					},
					{"id_job":19,
					"score":0.182000
					},
					{"id_job":20,
					"score":0.001100
					},
					{"id_job":21,
					"score":0.000500
					},
					{"id_job":22,
					"score":0.004000
					},
					{"id_job":23,
					"score":0.002500
					},
					{"id_job":24,
					"score":0.002000
					},
					{"id_job":25,
					"score":0.001000
					},
					{"id_job":26,
					"score":0.007000
					},
					{"id_job":27,
					"score":0.001400
					}
				]
			}
		}