
		{"id_cv":1294,
			"cv":" He is at the top of his profession and he has received some of the greatest honors a lawyer can achieve. By all accounts, he is as prepared as anyone can possibly be to serve with distinction on the federal bench. If past is prologue, all of that will be his undoing.",
			"y_p":9,
			"prediction": {
				"jobs": [
					{"id_job":0,
					"score":0.036600
					},
					{"id_job":1,
					"score":0.029800
					},
					{"id_job":2,
					"score":0.014800
					},
					{"id_job":3,
					"score":0.039100
					},
					{"id_job":4,
					"score":0.021200
					},
					{"id_job":5,
					"score":0.016200
					},
					{"id_job":6,
					"score":0.023000
					},
					{"id_job":7,
					"score":0.019000
					},
					{"id_job":8,
					"score":0.024600
					},
					{"id_job":9,
					"score":0.178000,
					"bow":[
						{"word":"account","weight":8.854614}]
					},
					{"id_job":10,
					"score":0.023200
					},
					{"id_job":11,
					"score":0.028800
					},
					{"id_job":12,
					"score":0.024500
					},
					{"id_job":13,
					"score":0.016500
					},
					{"id_job":14,
					"score":0.028700
					},
					{"id_job":15,
					"score":0.019900
					},
					{"id_job":16,
					"score":0.022600
					},
					{"id_job":17,
					"score":0.019500
					},
					{"id_job":18,
					"score":0.019300
					},
					{"id_job":19,
					"score":0.040300
					},
					{"id_job":20,
					"score":0.017200
					},
					{"id_job":21,
					"score":0.028400
					},
					{"id_job":22,
					"score":0.023400
					},
					{"id_job":23,
					"score":0.052100
					},
					{"id_job":24,
					"score":0.024400
					},
					{"id_job":25,
					"score":0.019500
					},
					{"id_job":26,
					"score":0.169100
					},
					{"id_job":27,
					"score":0.020200
					}
				]
			}
		}