
		{"id_cv":101028,
			"cv":" A graduate of Bowdoin College and DePaul University College of Law, he was a criminal prosecutor in Chicago for ten years before establishing his own private practice 18 years ago.",
			"y":26,
			"y_p":26,
			"prediction": {
				"jobs": [
					{"id_job":0,
					"score":0.022000
					},
					{"id_job":1,
					"score":0.015400
					},
					{"id_job":2,
					"score":0.015800
					},
					{"id_job":3,
					"score":0.020300
					},
					{"id_job":4,
					"score":0.017900
					},
					{"id_job":5,
					"score":0.015000
					},
					{"id_job":6,
					"score":0.015300
					},
					{"id_job":7,
					"score":0.015800
					},
					{"id_job":8,
					"score":0.022800
					},
					{"id_job":9,
					"score":0.032700
					},
					{"id_job":10,
					"score":0.016600
					},
					{"id_job":11,
					"score":0.026900
					},
					{"id_job":12,
					"score":0.022100
					},
					{"id_job":13,
					"score":0.020100
					},
					{"id_job":14,
					"score":0.042500
					},
					{"id_job":15,
					"score":0.015000
					},
					{"id_job":16,
					"score":0.031900
					},
					{"id_job":17,
					"score":0.024900
					},
					{"id_job":18,
					"score":0.011000
					},
					{"id_job":19,
					"score":0.052900
					},
					{"id_job":20,
					"score":0.015600
					},
					{"id_job":21,
					"score":0.011200
					},
					{"id_job":22,
					"score":0.043700
					},
					{"id_job":23,
					"score":0.144300
					},
					{"id_job":24,
					"score":0.025100
					},
					{"id_job":25,
					"score":0.007900
					},
					{"id_job":26,
					"score":0.277000,
					"bow":[
						{"word":"law","weight":7.796430},
						{"word":"practic","weight":2.505999},
						{"word":"univers","weight":0.960168},
						{"word":"crimin","weight":0.769696}]
					},
					{"id_job":27,
					"score":0.018300
					}
				]
			}
		}