
		{"id_cv":101062,
			"cv":" Dr. Drew believes in a head to toe chiropractic vision, and in addition to his work on the spine, specializes in feet, ankles, hips, wrists, jaws, shoulders and the occiput, areas commonly neglected by other doctors. Incorporating cranio-sacral techniques, as well as flexion-distraction, axial traction, decompression, massage, stretches, exercises, heat and cryotherapy into each patient visit gives his patients the best possible opportunity for both a speedy recovery and long lasting functional improvements.",
			"y":17,
			"y_p":17,
			"prediction": {
				"jobs": [
					{"id_job":0,
					"score":0.015100
					},
					{"id_job":1,
					"score":0.018100
					},
					{"id_job":2,
					"score":0.011800
					},
					{"id_job":3,
					"score":0.017900
					},
					{"id_job":4,
					"score":0.026800
					},
					{"id_job":5,
					"score":0.015300
					},
					{"id_job":6,
					"score":0.010200
					},
					{"id_job":7,
					"score":0.012800
					},
					{"id_job":8,
					"score":0.089400
					},
					{"id_job":9,
					"score":0.010000
					},
					{"id_job":10,
					"score":0.014300
					},
					{"id_job":11,
					"score":0.034000
					},
					{"id_job":12,
					"score":0.015700
					},
					{"id_job":13,
					"score":0.011200
					},
					{"id_job":14,
					"score":0.028500
					},
					{"id_job":15,
					"score":0.011500
					},
					{"id_job":16,
					"score":0.036100
					},
					{"id_job":17,
					"score":0.477700,
					"bow":[
						{"word":"chiropract","weight":10.031950},
						{"word":"dr","weight":4.815372},
						{"word":"patient","weight":3.841477},
						{"word":"techniqu","weight":2.592060},
						{"word":"spine","weight":0.971781},
						{"word":"doctor","weight":0.970720},
						{"word":"exercis","weight":0.858604},
						{"word":"addit","weight":0.753140},
						{"word":"massag","weight":0.691723},
						{"word":"decompress","weight":0.635602},
						{"word":"function","weight":0.608819},
						{"word":"possibl","weight":0.591764}]
					},
					{"id_job":18,
					"score":0.009900
					},
					{"id_job":19,
					"score":0.016300
					},
					{"id_job":20,
					"score":0.011100
					},
					{"id_job":21,
					"score":0.020200
					},
					{"id_job":22,
					"score":0.031000
					},
					{"id_job":23,
					"score":0.009200
					},
					{"id_job":24,
					"score":0.013200
					},
					{"id_job":25,
					"score":0.011300
					},
					{"id_job":26,
					"score":0.010500
					},
					{"id_job":27,
					"score":0.010900
					}
				]
			}
		}