
		{"id_cv":101063,
			"cv":" Matthew’s ability to communicate and connect with each of his clients has set him apart from other practitioners in his same fields of legal expertise. And, because of the reputation he has earned in the community Matthew has received many accolades including being named “Legal Elite” according to the Nevada Business Journal.",
			"y":26,
			"y_p":26,
			"prediction": {
				"jobs": [
					{"id_job":0,
					"score":0.029900
					},
					{"id_job":1,
					"score":0.027600
					},
					{"id_job":2,
					"score":0.025000
					},
					{"id_job":3,
					"score":0.023700
					},
					{"id_job":4,
					"score":0.034900
					},
					{"id_job":5,
					"score":0.012000
					},
					{"id_job":6,
					"score":0.037800
					},
					{"id_job":7,
					"score":0.035200
					},
					{"id_job":8,
					"score":0.015100
					},
					{"id_job":9,
					"score":0.041600
					},
					{"id_job":10,
					"score":0.037000
					},
					{"id_job":11,
					"score":0.015300
					},
					{"id_job":12,
					"score":0.018700
					},
					{"id_job":13,
					"score":0.021000
					},
					{"id_job":14,
					"score":0.035100
					},
					{"id_job":15,
					"score":0.021700
					},
					{"id_job":16,
					"score":0.015300
					},
					{"id_job":17,
					"score":0.011700
					},
					{"id_job":18,
					"score":0.021500
					},
					{"id_job":19,
					"score":0.053200
					},
					{"id_job":20,
					"score":0.023400
					},
					{"id_job":21,
					"score":0.021600
					},
					{"id_job":22,
					"score":0.025000
					},
					{"id_job":23,
					"score":0.151600
					},
					{"id_job":24,
					"score":0.024500
					},
					{"id_job":25,
					"score":0.016700
					},
					{"id_job":26,
					"score":0.190400,
					"bow":[
						{"word":"legal","weight":3.698630},
						{"word":"client","weight":2.336133},
						{"word":"busi","weight":1.573878},
						{"word":"receiv","weight":0.873345},
						{"word":"communiti","weight":0.787277}]
					},
					{"id_job":27,
					"score":0.013700
					}
				]
			}
		}