
		{"id_cv":1328,
			"cv":" She has helped many women experience a smooth transition as they reenter the workforce, while helping others realize they were better served by remaining stay-at-home moms.",
			"y_p":14,
			"prediction": {
				"jobs": [
					{"id_job":0,
					"score":0.085400
					},
					{"id_job":1,
					"score":0.033900
					},
					{"id_job":2,
					"score":0.029300
					},
					{"id_job":3,
					"score":0.035800
					},
					{"id_job":4,
					"score":0.074000
					},
					{"id_job":5,
					"score":0.015500
					},
					{"id_job":6,
					"score":0.022800
					},
					{"id_job":7,
					"score":0.057500
					},
					{"id_job":8,
					"score":0.024400
					},
					{"id_job":9,
					"score":0.046800
					},
					{"id_job":10,
					"score":0.021200
					},
					{"id_job":11,
					"score":0.032200
					},
					{"id_job":12,
					"score":0.035400
					},
					{"id_job":13,
					"score":0.024300
					},
					{"id_job":14,
					"score":0.090200,
					"bow":[]
					},
					{"id_job":15,
					"score":0.020000
					},
					{"id_job":16,
					"score":0.017900
					},
					{"id_job":17,
					"score":0.025700
					},
					{"id_job":18,
					"score":0.021300
					},
					{"id_job":19,
					"score":0.020200
					},
					{"id_job":20,
					"score":0.014300
					},
					{"id_job":21,
					"score":0.029900
					},
					{"id_job":22,
					"score":0.075000
					},
					{"id_job":23,
					"score":0.035300
					},
					{"id_job":24,
					"score":0.028300
					},
					{"id_job":25,
					"score":0.013700
					},
					{"id_job":26,
					"score":0.039600
					},
					{"id_job":27,
					"score":0.030200
					}
				]
			}
		}