
		{"id_cv":12006,
			"cv":" His previous books include This Band of Heroes: Granbury’s Texas Brigade, C.S.A.; Army of Manifest Destiny: The American Soldier in the Mexican War, 1846–1848; with John F. Kinney, Wake Island Pilot: A World War II Memoir.",
			"y_p":6,
			"prediction": {
				"jobs": [
					{"id_job":0,
					"score":0.051700
					},
					{"id_job":1,
					"score":0.033400
					},
					{"id_job":2,
					"score":0.011800
					},
					{"id_job":3,
					"score":0.051100
					},
					{"id_job":4,
					"score":0.015300
					},
					{"id_job":5,
					"score":0.027300
					},
					{"id_job":6,
					"score":0.104600,
					"bow":[]
					},
					{"id_job":7,
					"score":0.021200
					},
					{"id_job":8,
					"score":0.029600
					},
					{"id_job":9,
					"score":0.029100
					},
					{"id_job":10,
					"score":0.032600
					},
					{"id_job":11,
					"score":0.033000
					},
					{"id_job":12,
					"score":0.051800
					},
					{"id_job":13,
					"score":0.025700
					},
					{"id_job":14,
					"score":0.029300
					},
					{"id_job":15,
					"score":0.054700
					},
					{"id_job":16,
					"score":0.019000
					},
					{"id_job":17,
					"score":0.013500
					},
					{"id_job":18,
					"score":0.040300
					},
					{"id_job":19,
					"score":0.053700
					},
					{"id_job":20,
					"score":0.042400
					},
					{"id_job":21,
					"score":0.023600
					},
					{"id_job":22,
					"score":0.040100
					},
					{"id_job":23,
					"score":0.018200
					},
					{"id_job":24,
					"score":0.025300
					},
					{"id_job":25,
					"score":0.052000
					},
					{"id_job":26,
					"score":0.051400
					},
					{"id_job":27,
					"score":0.018000
					}
				]
			}
		}