
		{"id_cv":12094,
			"cv":" He was born and raised in United Kingdom. He received his B.Sc. in Geography from Coventry Polytechnic, U.K. (1986), a M.Sc. in Geography from the University of Idaho (1988) and a Ph.D. in Geography from the University of Illinois, Urbana-Champaign (1993).",
			"y_p":19,
			"prediction": {
				"jobs": [
					{"id_job":0,
					"score":0.064100
					},
					{"id_job":1,
					"score":0.040300
					},
					{"id_job":2,
					"score":0.014700
					},
					{"id_job":3,
					"score":0.058300
					},
					{"id_job":4,
					"score":0.023400
					},
					{"id_job":5,
					"score":0.031600
					},
					{"id_job":6,
					"score":0.027500
					},
					{"id_job":7,
					"score":0.018900
					},
					{"id_job":8,
					"score":0.030600
					},
					{"id_job":9,
					"score":0.033500
					},
					{"id_job":10,
					"score":0.024000
					},
					{"id_job":11,
					"score":0.034500
					},
					{"id_job":12,
					"score":0.032100
					},
					{"id_job":13,
					"score":0.049600
					},
					{"id_job":14,
					"score":0.031800
					},
					{"id_job":15,
					"score":0.032900
					},
					{"id_job":16,
					"score":0.023900
					},
					{"id_job":17,
					"score":0.024000
					},
					{"id_job":18,
					"score":0.022600
					},
					{"id_job":19,
					"score":0.141300,
					"bow":[
						{"word":"ph","weight":4.652871},
						{"word":"univers","weight":3.944963}]
					},
					{"id_job":20,
					"score":0.026500
					},
					{"id_job":21,
					"score":0.030300
					},
					{"id_job":22,
					"score":0.027400
					},
					{"id_job":23,
					"score":0.025000
					},
					{"id_job":24,
					"score":0.029700
					},
					{"id_job":25,
					"score":0.031600
					},
					{"id_job":26,
					"score":0.051100
					},
					{"id_job":27,
					"score":0.018800
					}
				]
			}
		}