
		{"id_cv":12069,
			"cv":" It's amazing what's visible from an elevated position, such as the tired worker who is lying down and soaking up some sun in a secluded patch of grass near Admiralty Arch.",
			"y_p":1,
			"prediction": {
				"jobs": [
					{"id_job":0,
					"score":0.066800
					},
					{"id_job":1,
					"score":0.077200,
					"bow":[]
					},
					{"id_job":2,
					"score":0.019100
					},
					{"id_job":3,
					"score":0.044100
					},
					{"id_job":4,
					"score":0.035400
					},
					{"id_job":5,
					"score":0.029600
					},
					{"id_job":6,
					"score":0.040100
					},
					{"id_job":7,
					"score":0.029300
					},
					{"id_job":8,
					"score":0.029900
					},
					{"id_job":9,
					"score":0.037800
					},
					{"id_job":10,
					"score":0.044800
					},
					{"id_job":11,
					"score":0.029500
					},
					{"id_job":12,
					"score":0.048600
					},
					{"id_job":13,
					"score":0.044500
					},
					{"id_job":14,
					"score":0.039700
					},
					{"id_job":15,
					"score":0.036000
					},
					{"id_job":16,
					"score":0.022200
					},
					{"id_job":17,
					"score":0.021300
					},
					{"id_job":18,
					"score":0.028300
					},
					{"id_job":19,
					"score":0.027600
					},
					{"id_job":20,
					"score":0.033100
					},
					{"id_job":21,
					"score":0.047100
					},
					{"id_job":22,
					"score":0.026000
					},
					{"id_job":23,
					"score":0.028100
					},
					{"id_job":24,
					"score":0.039900
					},
					{"id_job":25,
					"score":0.025300
					},
					{"id_job":26,
					"score":0.028300
					},
					{"id_job":27,
					"score":0.020500
					}
				]
			}
		}