
		{"id_cv":12036,
			"cv":" She founded the Beller Nutritional Institute in Beverly Hills, where her clients include Hollywood stars, executives, and people from all walks of life. Rachel is a spokesperson for the American Cancer Society and is actively involved in community outreach. She also serves as a nutrition expert for Glamour magazine and was the nutritionist for NBC&#8217;s hit series The Biggest Loser. She appears frequently on Good Morning America, The Dr. Oz Show, CNN, and ABC World News Tonight, and is the author of the bestselling book Eat to Lose, Eat to Win.",
			"y_p":27,
			"prediction": {
				"jobs": [
					{"id_job":0,
					"score":0.019600
					},
					{"id_job":1,
					"score":0.026900
					},
					{"id_job":2,
					"score":0.004700
					},
					{"id_job":3,
					"score":0.007900
					},
					{"id_job":4,
					"score":0.016600
					},
					{"id_job":5,
					"score":0.005100
					},
					{"id_job":6,
					"score":0.024100
					},
					{"id_job":7,
					"score":0.006800
					},
					{"id_job":8,
					"score":0.016700
					},
					{"id_job":9,
					"score":0.008200
					},
					{"id_job":10,
					"score":0.005500
					},
					{"id_job":11,
					"score":0.016000
					},
					{"id_job":12,
					"score":0.019300
					},
					{"id_job":13,
					"score":0.004600
					},
					{"id_job":14,
					"score":0.007000
					},
					{"id_job":15,
					"score":0.007000
					},
					{"id_job":16,
					"score":0.007900
					},
					{"id_job":17,
					"score":0.006600
					},
					{"id_job":18,
					"score":0.005500
					},
					{"id_job":19,
					"score":0.012400
					},
					{"id_job":20,
					"score":0.012500
					},
					{"id_job":21,
					"score":0.004300
					},
					{"id_job":22,
					"score":0.046300
					},
					{"id_job":23,
					"score":0.004500
					},
					{"id_job":24,
					"score":0.007200
					},
					{"id_job":25,
					"score":0.005800
					},
					{"id_job":26,
					"score":0.012700
					},
					{"id_job":27,
					"score":0.678300,
					"bow":[
						{"word":"nutrit","weight":12.001671},
						{"word":"eat","weight":3.201027}]
					}
				]
			}
		}