
		{"id_cv":1322,
			"cv":" He is also the owner of SKEWmedia, a film/video production company. Scott believes in the power of story in human lives and believe filmmaking to be the most powerful storytelling tool ever created. In January, the Denver Post named him a 2011 Pathmaker of the Year for his work in film and education.",
			"y_p":18,
			"prediction": {
				"jobs": [
					{"id_job":0,
					"score":0.008100
					},
					{"id_job":1,
					"score":0.007800
					},
					{"id_job":2,
					"score":0.004900
					},
					{"id_job":3,
					"score":0.011800
					},
					{"id_job":4,
					"score":0.004300
					},
					{"id_job":5,
					"score":0.004600
					},
					{"id_job":6,
					"score":0.009100
					},
					{"id_job":7,
					"score":0.003800
					},
					{"id_job":8,
					"score":0.001900
					},
					{"id_job":9,
					"score":0.006600
					},
					{"id_job":10,
					"score":0.003300
					},
					{"id_job":11,
					"score":0.002900
					},
					{"id_job":12,
					"score":0.007500
					},
					{"id_job":13,
					"score":0.008300
					},
					{"id_job":14,
					"score":0.004700
					},
					{"id_job":15,
					"score":0.005400
					},
					{"id_job":16,
					"score":0.002800
					},
					{"id_job":17,
					"score":0.002700
					},
					{"id_job":18,
					"score":0.859400,
					"bow":[
						{"word":"film","weight":11.641293},
						{"word":"filmmak","weight":3.444418},
						{"word":"video","weight":3.284217},
						{"word":"product","weight":2.607357}]
					},
					{"id_job":19,
					"score":0.005000
					},
					{"id_job":20,
					"score":0.005900
					},
					{"id_job":21,
					"score":0.003100
					},
					{"id_job":22,
					"score":0.004000
					},
					{"id_job":23,
					"score":0.003300
					},
					{"id_job":24,
					"score":0.003500
					},
					{"id_job":25,
					"score":0.008500
					},
					{"id_job":26,
					"score":0.003900
					},
					{"id_job":27,
					"score":0.002900
					}
				]
			}
		}