
		{"id_cv":20,
			"cv":" He received his Ph.D. from George Mason University in 2003. He has numerous publications in scholarly journals, policy papers, and the popular press.AllStudiesOp-EdsAffordable Housing in Monterrey CountyAnalyzing the General Plan Update and Applied Development Economics ReportBenjamin Powell, Edward Stringham and Adam SummersAugust 1, 2004Huge Hidden Tax on HomesInclusionary zoning drives up pricesBenjamin Powell and Edward StringhamJune 30, 2004Do Affordable Housing Mandates Work? Evidence from Los Angeles County and Orange CountyBenjamin Powell and Edward StringhamJune 1, 2004Housing Supply and AffordabilityDo Affordable Housing Mandates Work?Benjamin Powell and Edward StringhamApril 1, 2004Page 1 of 1",
			"y_p":19,
			"prediction": {
				"jobs": [
					{"id_job":0,
					"score":0.026200
					},
					{"id_job":1,
					"score":0.031000
					},
					{"id_job":2,
					"score":0.009200
					},
					{"id_job":3,
					"score":0.029000
					},
					{"id_job":4,
					"score":0.016000
					},
					{"id_job":5,
					"score":0.026000
					},
					{"id_job":6,
					"score":0.084800
					},
					{"id_job":7,
					"score":0.037800
					},
					{"id_job":8,
					"score":0.025400
					},
					{"id_job":9,
					"score":0.042400
					},
					{"id_job":10,
					"score":0.062100
					},
					{"id_job":11,
					"score":0.031900
					},
					{"id_job":12,
					"score":0.023700
					},
					{"id_job":13,
					"score":0.027400
					},
					{"id_job":14,
					"score":0.023600
					},
					{"id_job":15,
					"score":0.039400
					},
					{"id_job":16,
					"score":0.020700
					},
					{"id_job":17,
					"score":0.015700
					},
					{"id_job":18,
					"score":0.022200
					},
					{"id_job":19,
					"score":0.140500,
					"bow":[
						{"word":"ph","weight":4.652871},
						{"word":"univers","weight":3.944963},
						{"word":"journal","weight":2.923805},
						{"word":"econom","weight":2.478234},
						{"word":"press","weight":2.064194},
						{"word":"receiv","weight":1.900002},
						{"word":"polici","weight":1.832345},
						{"word":"scholar","weight":1.727884},
						{"word":"develop","weight":1.148386},
						{"word":"public","weight":0.776237},
						{"word":"paper","weight":0.679587},
						{"word":"mason","weight":0.419702},
						{"word":"evid","weight":0.415296},
						{"word":"general","weight":0.282007},
						{"word":"georg","weight":0.270359},
						{"word":"powel","weight":0.215623},
						{"word":"plan","weight":0.158300},
						{"word":"appli","weight":0.158049}]
					},
					{"id_job":20,
					"score":0.040700
					},
					{"id_job":21,
					"score":0.022500
					},
					{"id_job":22,
					"score":0.030300
					},
					{"id_job":23,
					"score":0.024100
					},
					{"id_job":24,
					"score":0.071100
					},
					{"id_job":25,
					"score":0.021700
					},
					{"id_job":26,
					"score":0.041700
					},
					{"id_job":27,
					"score":0.012900
					}
				]
			}
		}