
		{"id_cv":58,
			"cv":" He also makes films, including Comic Book City, Portland, Oregon, USA (2012), a documentary on the community of comics creators in Portland, Oregon (view details on IMDB).",
			"y_p":18,
			"prediction": {
				"jobs": [
					{"id_job":0,
					"score":0.032000
					},
					{"id_job":1,
					"score":0.032800
					},
					{"id_job":2,
					"score":0.010700
					},
					{"id_job":3,
					"score":0.038900
					},
					{"id_job":4,
					"score":0.012500
					},
					{"id_job":5,
					"score":0.021700
					},
					{"id_job":6,
					"score":0.043800
					},
					{"id_job":7,
					"score":0.020000
					},
					{"id_job":8,
					"score":0.013400
					},
					{"id_job":9,
					"score":0.028900
					},
					{"id_job":10,
					"score":0.020300
					},
					{"id_job":11,
					"score":0.026100
					},
					{"id_job":12,
					"score":0.107400
					},
					{"id_job":13,
					"score":0.016800
					},
					{"id_job":14,
					"score":0.027900
					},
					{"id_job":15,
					"score":0.023600
					},
					{"id_job":16,
					"score":0.015900
					},
					{"id_job":17,
					"score":0.015700
					},
					{"id_job":18,
					"score":0.228500,
					"bow":[
						{"word":"documentari","weight":5.585256},
						{"word":"make","weight":0.715249},
						{"word":"detail","weight":0.359321},
						{"word":"includ","weight":0.197524},
						{"word":"citi","weight":0.050611}]
					},
					{"id_job":19,
					"score":0.071900
					},
					{"id_job":20,
					"score":0.048900
					},
					{"id_job":21,
					"score":0.018500
					},
					{"id_job":22,
					"score":0.023000
					},
					{"id_job":23,
					"score":0.014000
					},
					{"id_job":24,
					"score":0.022100
					},
					{"id_job":25,
					"score":0.024800
					},
					{"id_job":26,
					"score":0.025200
					},
					{"id_job":27,
					"score":0.014600
					}
				]
			}
		}