
		{"id_cv":5,
			"cv":" He is author of several books, including the bestselling Anxiety & Phobia Workbook, that have reached hundreds of thousands of people throughout the world. He welcomes comments and feedback, which can be sent to edbourne@globalshiftnow.com. See less",
			"y_p":22,
			"prediction": {
				"jobs": [
					{"id_job":0,
					"score":0.052400
					},
					{"id_job":1,
					"score":0.035100
					},
					{"id_job":2,
					"score":0.015400
					},
					{"id_job":3,
					"score":0.066300
					},
					{"id_job":4,
					"score":0.032800
					},
					{"id_job":5,
					"score":0.017800
					},
					{"id_job":6,
					"score":0.058200
					},
					{"id_job":7,
					"score":0.019300
					},
					{"id_job":8,
					"score":0.017300
					},
					{"id_job":9,
					"score":0.018200
					},
					{"id_job":10,
					"score":0.023400
					},
					{"id_job":11,
					"score":0.028700
					},
					{"id_job":12,
					"score":0.031600
					},
					{"id_job":13,
					"score":0.027400
					},
					{"id_job":14,
					"score":0.030200
					},
					{"id_job":15,
					"score":0.027400
					},
					{"id_job":16,
					"score":0.021500
					},
					{"id_job":17,
					"score":0.027300
					},
					{"id_job":18,
					"score":0.015800
					},
					{"id_job":19,
					"score":0.030200
					},
					{"id_job":20,
					"score":0.033300
					},
					{"id_job":21,
					"score":0.019000
					},
					{"id_job":22,
					"score":0.230200,
					"bow":[
						{"word":"author","weight":2.998866},
						{"word":"book","weight":2.357522},
						{"word":"anxieti","weight":2.233858},
						{"word":"peopl","weight":1.009713},
						{"word":"com","weight":0.904316},
						{"word":"feedback","weight":0.508962},
						{"word":"reach","weight":0.489547},
						{"word":"phobia","weight":0.427544},
						{"word":"workbook","weight":0.385008},
						{"word":"send","weight":0.274760},
						{"word":"edbourn","weight":0.269499},
						{"word":"globalshiftnow","weight":0.269499},
						{"word":"bestsel","weight":0.108385},
						{"word":"includ","weight":0.083221},
						{"word":"hundr","weight":0.070012}]
					},
					{"id_job":23,
					"score":0.012000
					},
					{"id_job":24,
					"score":0.021500
					},
					{"id_job":25,
					"score":0.015300
					},
					{"id_job":26,
					"score":0.045600
					},
					{"id_job":27,
					"score":0.026700
					}
				]
			}
		}