
		{"id_cv":74,
			"cv":" His specialty areas include political economics, game theory and experimental economics. His areas of research include lobbying, auctions & competitions, and information. Cotton's blog, 'Interesting Economics,' focuses on microeconomics research that even non-economists might enjoy — http://www.interestingeconomics.com/. He received a B.A. from Michigan State University, and an M.A. and Ph.D from Cornell University.",
			"y_p":19,
			"prediction": {
				"jobs": [
					{"id_job":0,
					"score":0.002200
					},
					{"id_job":1,
					"score":0.001100
					},
					{"id_job":2,
					"score":0.000900
					},
					{"id_job":3,
					"score":0.003000
					},
					{"id_job":4,
					"score":0.001600
					},
					{"id_job":5,
					"score":0.001000
					},
					{"id_job":6,
					"score":0.003800
					},
					{"id_job":7,
					"score":0.001400
					},
					{"id_job":8,
					"score":0.003500
					},
					{"id_job":9,
					"score":0.002400
					},
					{"id_job":10,
					"score":0.000900
					},
					{"id_job":11,
					"score":0.004600
					},
					{"id_job":12,
					"score":0.001000
					},
					{"id_job":13,
					"score":0.006000
					},
					{"id_job":14,
					"score":0.002000
					},
					{"id_job":15,
					"score":0.001200
					},
					{"id_job":16,
					"score":0.002000
					},
					{"id_job":17,
					"score":0.001400
					},
					{"id_job":18,
					"score":0.001600
					},
					{"id_job":19,
					"score":0.925500,
					"bow":[
						{"word":"ph","weight":4.652871},
						{"word":"univers","weight":3.944963},
						{"word":"focus","weight":2.717839},
						{"word":"interest","weight":2.531513},
						{"word":"econom","weight":2.478234},
						{"word":"polit","weight":2.330723},
						{"word":"theori","weight":2.017170},
						{"word":"receiv","weight":1.900002},
						{"word":"includ","weight":1.813848},
						{"word":"area","weight":1.435328},
						{"word":"game","weight":0.695248},
						{"word":"state","weight":0.499478},
						{"word":"inform","weight":0.420260},
						{"word":"non","weight":0.330347},
						{"word":"experiment","weight":0.230966},
						{"word":"economist","weight":0.174732},
						{"word":"microeconom","weight":0.112432},
						{"word":"cornel","weight":0.105163},
						{"word":"michigan","weight":0.056365},
						{"word":"competit","weight":0.044991}]
					},
					{"id_job":20,
					"score":0.001700
					},
					{"id_job":21,
					"score":0.000900
					},
					{"id_job":22,
					"score":0.006200
					},
					{"id_job":23,
					"score":0.002900
					},
					{"id_job":24,
					"score":0.004900
					},
					{"id_job":25,
					"score":0.002300
					},
					{"id_job":26,
					"score":0.011200
					},
					{"id_job":27,
					"score":0.002500
					}
				]
			}
		}