
		{"id_cv":8,
			"cv":" Her teachings get straight to the heart of Tantric Buddhism and Ayurvedic Medicine for finding sanity and wisdom within every experience of life. Also known as “Tröma Rinpoche”, she is Buddhist teacher, humanitarian and author who founded of the School of Yogic Buddhism and the Yogic Medicine Institute.",
			"y_p":3,
			"prediction": {
				"jobs": [
					{"id_job":0,
					"score":0.023300
					},
					{"id_job":1,
					"score":0.021200
					},
					{"id_job":2,
					"score":0.042100
					},
					{"id_job":3,
					"score":0.426300,
					"bow":[
						{"word":"teacher","weight":5.578686},
						{"word":"school","weight":3.832566},
						{"word":"author","weight":1.144063},
						{"word":"rinpoch","weight":0.933406},
						{"word":"buddhism","weight":0.817934},
						{"word":"buddhist","weight":0.746559},
						{"word":"tantric","weight":0.324824},
						{"word":"found","weight":0.309879},
						{"word":"wisdom","weight":0.305779},
						{"word":"yogic","weight":0.279817},
						{"word":"life","weight":0.263041},
						{"word":"humanitarian","weight":0.229840},
						{"word":"tröma","weight":0.154270},
						{"word":"find","weight":0.145071},
						{"word":"saniti","weight":0.110277},
						{"word":"heart","weight":0.075471},
						{"word":"ayurved","weight":0.058561}]
					},
					{"id_job":4,
					"score":0.012000
					},
					{"id_job":5,
					"score":0.013100
					},
					{"id_job":6,
					"score":0.016200
					},
					{"id_job":7,
					"score":0.010200
					},
					{"id_job":8,
					"score":0.033900
					},
					{"id_job":9,
					"score":0.016100
					},
					{"id_job":10,
					"score":0.017500
					},
					{"id_job":11,
					"score":0.100400
					},
					{"id_job":12,
					"score":0.018500
					},
					{"id_job":13,
					"score":0.013100
					},
					{"id_job":14,
					"score":0.021600
					},
					{"id_job":15,
					"score":0.017400
					},
					{"id_job":16,
					"score":0.013100
					},
					{"id_job":17,
					"score":0.009600
					},
					{"id_job":18,
					"score":0.014400
					},
					{"id_job":19,
					"score":0.027200
					},
					{"id_job":20,
					"score":0.010700
					},
					{"id_job":21,
					"score":0.018000
					},
					{"id_job":22,
					"score":0.035600
					},
					{"id_job":23,
					"score":0.010000
					},
					{"id_job":24,
					"score":0.018100
					},
					{"id_job":25,
					"score":0.011900
					},
					{"id_job":26,
					"score":0.012600
					},
					{"id_job":27,
					"score":0.015700
					}
				]
			}
		}