
		{"id_cv":9,
			"cv":" For more quips and tips, refer to her blog, “The Written Remedy” (thewrittenremedy@blogspot.com). Abby can be reached at amackrn23@gmail.com or on Twitter at @AbigailMackey RN.",
			"y_p":6,
			"prediction": {
				"jobs": [
					{"id_job":0,
					"score":0.054700
					},
					{"id_job":1,
					"score":0.023400
					},
					{"id_job":2,
					"score":0.022800
					},
					{"id_job":3,
					"score":0.037100
					},
					{"id_job":4,
					"score":0.041100
					},
					{"id_job":5,
					"score":0.019300
					},
					{"id_job":6,
					"score":0.184300,
					"bow":[
						{"word":"write","weight":3.603243},
						{"word":"blog","weight":1.999318},
						{"word":"twitter","weight":1.897717},
						{"word":"com","weight":1.891820},
						{"word":"gmail","weight":0.574888},
						{"word":"reach","weight":0.395749},
						{"word":"tip","weight":0.129267}]
					},
					{"id_job":7,
					"score":0.028500
					},
					{"id_job":8,
					"score":0.019400
					},
					{"id_job":9,
					"score":0.019500
					},
					{"id_job":10,
					"score":0.019800
					},
					{"id_job":11,
					"score":0.024500
					},
					{"id_job":12,
					"score":0.029200
					},
					{"id_job":13,
					"score":0.046700
					},
					{"id_job":14,
					"score":0.100600
					},
					{"id_job":15,
					"score":0.032700
					},
					{"id_job":16,
					"score":0.018500
					},
					{"id_job":17,
					"score":0.024800
					},
					{"id_job":18,
					"score":0.019500
					},
					{"id_job":19,
					"score":0.016300
					},
					{"id_job":20,
					"score":0.021300
					},
					{"id_job":21,
					"score":0.034100
					},
					{"id_job":22,
					"score":0.033100
					},
					{"id_job":23,
					"score":0.014700
					},
					{"id_job":24,
					"score":0.024600
					},
					{"id_job":25,
					"score":0.020100
					},
					{"id_job":26,
					"score":0.047500
					},
					{"id_job":27,
					"score":0.021900
					}
				]
			}
		}